ply
format ascii 1.0
comment VCGLIB generated
element vertex 376
property float x
property float y
property float z
property float nx
property float ny
property float nz
property float texture_u
property float texture_v
element face 192
property list uchar int vertex_indices
end_header
0.73448 -0.73448 -0.112908 -0 -0 -1 0.473495 0.862850
-0.73448 0.73448 -0.112908 -0 -0 -1 0.325652 0.715008
0.73448 0.73448 -0.112908 -0 -0 -1 0.325652 0.862850
-0.73448 -0.73448 1.356052 -1 0 0 0.473495 0.338764
-0.73448 0.73448 4.715786 -1 0 0 0.325652 0.000626
-0.73448 0.73448 1.356052 -1 0 0 0.325652 0.338764
0.73448 0.734479 1.356052 1 0 -0 0.622589 0.148468
0.73448 -0.73448 -0.112908 1 0 -0 0.474746 0.000626
0.73448 0.73448 -0.112908 1 0 -0 0.622589 0.000626
0.734479 -0.73448 1.356052 -0 -1 -0 0.325652 0.338764
-0.73448 -0.73448 -0.112908 -0 -1 -0 0.473495 0.486607
0.73448 -0.73448 -0.112908 -0 -1 -0 0.325652 0.486607
-0.73448 0.73448 -0.112908 -1 0 -0 0.325652 0.486607
-0.73448 -0.73448 -0.112908 -1 0 -0 0.473495 0.486607
0.73448 0.73448 -0.112908 0 1 0 0.766307 0.635701
-0.73448 0.73448 1.356052 0 1 0 0.618464 0.487858
0.73448 0.734479 1.356052 0 1 0 0.618464 0.635701
-0.73448 -0.73448 4.715786 -1 0 0 0.297562 0.402701
-0.73448 0.73448 5.687723 -1 0 0 0.149720 0.304880
-0.73448 0.73448 4.715786 -1 0 0 0.149720 0.402701
0.73448 0.734479 1.356052 0 1 0 0.623840 0.338764
-0.73448 0.73448 1.356052 0 1 0 0.771683 0.338764
0.276336 0.734479 3.091405 0 1 0 0.669950 0.164111
-0.73448 -0.73448 1.356052 0 -1 0 0.473495 0.338764
0.241159 -0.734479 3.151869 0 -1 0 0.375303 0.158025
-0.301756 -0.734479 3.159657 0 -1 0 0.429944 0.157241
0.73448 0.734479 1.356052 1 -1e-06 0 0.622589 0.148468
0.734479 -0.73448 4.715786 1 -1e-06 0 0.474746 0.486607
0.734479 -0.73448 1.356052 1 -1e-06 0 0.474746 0.148468
-0.268255 2.378613 3.118689 2e-06 1 -1e-06 0.863195 0.709741
0.279273 2.378613 3.774025 2e-06 1 -1e-06 0.929931 0.655583
0.276336 2.378612 3.091405 2e-06 1 -1e-06 0.861232 0.654897
0.279273 0.73448 3.774025 -2e-06 1 1e-06 0.102654 0.548236
-0.251837 0.734479 3.781616 -2e-06 1 1e-06 0.049201 0.549000
0.73448 0.734479 4.715786 -2e-06 1 1e-06 0.148468 0.643019
-0.268255 2.16476 3.118689 -0.05003602 0 -0.9987475 0.870226 0.392017
-0.268255 2.378613 3.118689 -0.05003602 0 -0.9987475 0.870226 0.413540
0.276336 2.378612 3.091405 -0.05003602 0 -0.9987475 0.925037 0.413540
0.279273 2.378613 3.774025 0.014291 -0 0.9998979 0.515022 0.781724
-0.251837 2.144969 3.781616 0.014291 -0 0.9998979 0.501762 0.724852
-0.251837 1.980289 3.781616 0.014291 -0 0.9998979 0.515022 0.714907
0.279273 0.73448 3.774025 0.9999908 -0 -0.004301999 0.000626 0.804503
0.276336 2.378612 3.091405 0.9999908 -0 -0.004301999 0.069328 0.969976
0.279273 2.378613 3.774025 0.9999908 -0 -0.004301999 0.000626 0.969976
-0.268256 0.73448 3.118689 -0.9996935 0 0.02476001 0.834278 0.863522
-0.251837 1.980289 3.781616 -0.9996935 0 0.02476001 0.767558 0.988906
-0.268255 2.011703 3.118689 -0.9996935 0 0.02476001 0.834278 0.992067
-0.287132 -2.381738 3.840995 -2e-06 -1 -3e-06 0.203143 0.892476
0.241158 -2.381737 3.151865 -2e-06 -1 -3e-06 0.148498 0.960676
0.287507 -2.381739 3.871231 -2e-06 -1 -3e-06 0.145388 0.888193
-0.73448 -0.73448 4.715786 -0 -1 1e-06 0.297562 0.402701
0.287509 -0.734481 3.871234 -0 -1 1e-06 0.194705 0.487700
0.734479 -0.73448 4.715786 -0 -1 1e-06 0.149720 0.402701
-0.301756 -0.734479 3.159657 -0.9997697 9.999998e-07 0.021461 0.766244 0.951834
-0.287132 -2.381738 3.840995 -0.9997697 9.999998e-07 0.021461 0.697671 0.786046
-0.287131 -0.73448 3.840999 -0.9997697 9.999998e-07 0.021461 0.697671 0.951834
0.287509 -0.734481 3.871234 0.9979308 -9.999998e-07 -0.06429798 0.861232 0.653646
0.241158 -2.381737 3.151865 0.9979308 -9.999998e-07 -0.06429798 0.933632 0.487858
0.241159 -0.734479 3.151869 0.9979308 -9.999998e-07 -0.06429798 0.933632 0.653646
-0.301756 -0.734479 3.159657 -0.014344 2e-06 -0.9998971 0.980929 0.248067
0.241158 -2.381737 3.151865 -0.014344 2e-06 -0.9998971 0.926288 0.413854
-0.301757 -2.381737 3.159654 -0.014344 2e-06 -0.9998971 0.980929 0.413854
0.287509 -0.734481 3.871234 -0.05254398 -1.999999e-06 0.9986187 0.967030 0.166413
-0.287132 -2.381738 3.840995 -0.05254398 -1.999999e-06 0.9986187 0.909196 0.000626
0.287507 -2.381739 3.871231 -0.05254398 -1.999999e-06 0.9986187 0.967030 0.000626
0.734479 -0.73448 5.687723 -0 -1 0 0.470807 0.635701
-0.73448 -0.73448 5.89208 -0 -1 0 0.450240 0.487858
-0.73448 -0.73448 5.687723 -0 -1 0 0.470807 0.487858
-0.73448 0.73448 4.715786 0 1 -0 0.000626 0.643019
0.73448 0.734479 5.687723 0 1 -0 0.148468 0.740839
0.73448 0.734479 4.715786 0 1 -0 0.148468 0.643019
0.734479 -0.73448 4.715786 -0 -1 0 0.149720 0.402701
-0.73448 -0.73448 5.687723 -0 -1 0 0.297562 0.304880
-0.73448 -0.73448 4.715786 -0 -1 0 0.297562 0.402701
0.73448 0.734479 4.715786 1 -1e-06 0 0.148468 0.643019
0.734479 -0.73448 5.687723 1 -1e-06 0 0.000626 0.740839
0.734479 -0.73448 4.715786 1 -1e-06 0 0.000626 0.643019
-0.73448 -0.73448 5.89208 -1 0 0 0.450240 0.487858
-0.73448 0.73448 7.129975 -1 0 0 0.325652 0.635701
-0.73448 0.73448 5.89208 -1 0 0 0.450240 0.635701
0.73448 0.734479 5.687723 0 0 -1 0.947705 0.714428
1.509039 -0.734481 5.687723 0 0 -1 0.869750 0.862271
0.734479 -0.73448 5.687723 0 0 -1 0.947705 0.862271
-0.73448 -0.73448 5.89208 0 1 0 0.450240 0.487858
1.510038 -0.73448 5.687723 0 1 0 0.470807 0.713757
-0.73448 -0.73448 5.687723 0 1 0 0.470807 0.487858
-0.73448 0.73448 5.687723 0 1 -0 0.617213 0.487858
0.73448 0.734479 5.89208 0 1 -0 0.596646 0.635701
0.73448 0.734479 5.687723 0 1 -0 0.617213 0.635701
-1.500595 -0.734479 5.687723 -1 0 0 0.547053 0.922007
-1.500594 0.73448 5.89208 -1 0 0 0.399210 0.901439
-1.500594 0.73448 5.687723 -1 0 0 0.399210 0.922007
-0.73448 0.73448 5.89208 0 -0 1 0.907944 0.214524
-1.500595 -0.734479 5.89208 0 -0 1 0.830839 0.066682
-0.73448 -0.73448 5.89208 0 -0 1 0.907944 0.066682
-0.73448 -0.73448 5.687723 -0 -0 -1 0.240891 0.077731
-1.500594 0.73448 5.687723 -0 -0 -1 0.093048 0.000626
-0.73448 0.73448 5.687723 -0 -0 -1 0.093048 0.077731
-1.500594 0.73448 5.89208 0 0 1 0.144137 0.888193
-0.73448 1.465015 5.89208 0 0 1 0.070612 0.965298
-1.500594 1.465348 5.89208 0 0 1 0.070579 0.888193
-0.73448 -1.564233 5.89208 -0 -1 0 0.226524 0.782684
-1.500595 -1.564233 5.687723 -0 -1 0 0.303629 0.803252
-0.73448 -1.564233 5.687723 -0 -1 0 0.226524 0.803252
-1.500595 -1.389157 5.89208 0 -0 1 0.830839 0.000792
-0.73448 -1.390812 5.89208 0 -0 1 0.907944 0.000626
-1.500595 -1.564233 5.687723 -1 -0 -0 0.935751 0.420174
-1.500595 -1.564233 5.89208 -1 -0 -0 0.935751 0.440742
-1.500595 -1.389157 5.89208 -1 -0 -0 0.953371 0.440742
-1.500595 -1.564233 5.687723 0 -0 -1 0.324401 0.000626
-1.500595 -0.734479 5.687723 0 -0 -1 0.240891 0.000626
-0.73448 1.652789 5.687723 0 1 0 0.829588 0.077731
-1.500594 1.65279 5.89208 0 1 0 0.809021 0.000626
-0.73448 1.652789 5.89208 0 1 0 0.809021 0.077731
-1.500594 1.65279 5.687723 -0 -0 -1 0.000626 0.000626
-0.73448 1.652789 5.687723 -0 -0 -1 0.000626 0.077731
-1.500594 1.465348 5.89208 -1 0 0 0.325652 0.901439
1.504275 1.652789 6.250632 0 1 -0 0.772934 0.303049
1.504275 1.652789 5.89208 0 1 -0 0.809021 0.303049
1.510038 -0.73448 5.89208 1 -0 0 0.835530 0.927098
1.510037 -1.39566 5.89208 1 -0 0 0.855180 0.863522
1.510038 -0.73448 5.687723 1 -0 0 0.855180 0.933172
1.510037 -1.564233 5.89208 -0 -1 0 0.000626 0.782684
1.510037 -1.564233 5.687723 0 0 -1 0.324401 0.303629
-0.73448 -1.564233 5.687723 0 0 -1 0.324401 0.077731
-0.73448 -1.390812 5.89208 0 0 1 0.849739 0.480847
1.510038 -0.73448 5.89208 0 0 1 0.623840 0.414791
-0.73448 -0.73448 5.89208 0 0 1 0.849739 0.414791
1.504275 1.652789 5.687723 1 -0 0 0.950179 0.654897
1.504275 1.652789 5.89208 1 -0 0 0.950179 0.675464
1.504275 1.464043 5.89208 1 -0 0 0.931183 0.675464
1.504275 1.652789 5.687723 0 1 0 0.829588 0.303049
-0.73448 1.652789 5.687723 0 0 -1 0.767558 0.487858
1.504275 0.734479 5.687723 0 0 -1 0.859981 0.713177
-0.73448 0.73448 5.687723 0 0 -1 0.859981 0.487858
-0.73448 0.73448 5.687723 -0 -1 0 0.617213 0.487858
1.504275 0.734479 5.89208 -0 -1 0 0.596646 0.713177
-0.73448 0.73448 5.89208 -0 -1 0 0.596646 0.487858
1.50904 0.734479 5.687723 1 -1e-06 0 0.325652 0.964073
1.509039 -0.734481 5.89208 1 -1e-06 0 0.473495 0.943505
1.509039 -0.734481 5.687723 1 -1e-06 0 0.473495 0.964073
0.73448 0.734479 5.89208 1e-06 1 0 0.596646 0.635701
1.50904 0.734479 5.687723 1e-06 1 0 0.617213 0.713656
0.73448 0.734479 5.687723 1e-06 1 0 0.617213 0.635701
0.734479 -0.73448 5.687723 -1e-06 -1 0 0.470807 0.635701
1.509039 -0.734481 5.89208 -1e-06 -1 0 0.450240 0.713656
0.734479 -0.73448 5.89208 -1e-06 -1 0 0.450240 0.635701
0.73448 0.734479 5.89208 0 0 1 0.696420 0.786046
1.509039 -0.734481 5.89208 0 0 1 0.618464 0.933889
1.50904 0.734479 5.89208 0 0 1 0.618464 0.786046
-0.73448 0.73448 7.129975 0 0 1 0.618464 0.636952
0.734479 -0.73448 7.129975 0 0 1 0.766307 0.784795
0.73448 0.734479 7.129975 0 0 1 0.618464 0.784795
1.504275 1.464043 5.89208 -0.000434 -0.9999999 0 0.325652 0.900188
-0.73448 1.465015 6.250632 -0.000434 -0.9999999 0 0.550971 0.864102
-0.73448 1.465015 5.89208 -0.000434 -0.9999999 0 0.550971 0.900188
1.504275 1.464043 5.89208 0 -0 1 0.849159 0.413442
-0.73448 0.73448 5.89208 0 -0 1 0.623840 0.340016
1.504275 0.734479 5.89208 0 -0 1 0.849159 0.340016
-1.500595 -1.389157 5.89208 0.002159999 0.9999977 -0 0.281500 0.928787
-0.73448 -1.390812 6.295418 0.002159999 0.9999977 -0 0.204395 0.888193
-0.73448 -1.390812 5.89208 0.002159999 0.9999977 -0 0.204395 0.928787
1.510037 -1.39566 5.89208 1 -0 0 0.917534 0.460768
1.510037 -1.564233 6.295418 1 -0 0 0.934500 0.420174
1.510037 -1.564233 5.89208 1 -0 0 0.934500 0.460768
-0.73448 0.73448 5.89208 0 1 -0 0.596646 0.487858
0.73448 0.734479 7.129975 0 1 -0 0.472058 0.635701
0.734479 -0.73448 5.89208 -0 -1 0 0.450240 0.635701
-0.73448 -0.73448 7.129975 -0 -1 0 0.325652 0.487858
0.73448 0.734479 5.89208 1 -1e-06 0 0.596646 0.635701
0.734479 -0.73448 7.129975 1 -1e-06 0 0.472058 0.487858
0.734479 -0.73448 5.89208 1 -1e-06 0 0.596646 0.487858
1.510037 -1.39566 6.295418 0 -0 1 0.299301 0.530779
-0.73448 -1.564233 6.295418 0 -0 1 0.316267 0.304880
1.510037 -1.564233 6.295418 0 -0 1 0.316267 0.530779
-0.73448 -1.390812 6.295418 0 -0 1 0.306947 0.792113
-1.500595 -1.564233 6.295418 0 -0 1 0.324401 0.715008
-0.73448 -1.564233 6.295418 0 -0 1 0.324401 0.792113
1.510037 -1.564233 5.89208 -0 -1 0 0.070579 0.886941
-0.73448 -1.564233 6.295418 -0 -1 0 0.296477 0.846348
-0.73448 -1.564233 5.89208 -0 -1 0 0.296477 0.886942
-1.500595 -1.389157 6.295418 -1 -0 0 0.953371 0.481335
-0.73448 -1.390812 5.89208 0.002159999 0.9999977 -0 0.296477 0.845097
1.510037 -1.39566 6.295418 0.002159999 0.9999977 -0 0.070579 0.804503
1.510037 -1.39566 5.89208 0.002159999 0.9999977 -0 0.070579 0.845097
-1.500595 -1.564233 6.295418 -0 -1 0 0.303629 0.742090
-1.500595 -1.564233 5.89208 -0 -1 0 0.303629 0.782684
-0.73448 1.465015 6.250632 0 0 1 0.550971 0.942156
1.504275 1.652789 6.250632 0 0 1 0.325652 0.923258
-0.73448 1.652789 6.250632 0 0 1 0.550971 0.923258
-1.500594 1.465348 6.250632 0 0 1 0.325652 0.965358
-0.73448 1.652789 6.250632 0 0 1 0.402758 0.984222
-1.500594 1.65279 6.250632 0 0 1 0.325652 0.984222
-1.500594 1.465348 5.89208 -1 -0 0 0.596646 0.937559
-1.500594 1.65279 6.250632 -1 -0 0 0.560559 0.956424
-1.500594 1.65279 5.89208 -1 -0 0 0.596646 0.956424
-0.73448 1.465015 5.89208 -0.000434 -0.9999999 0 0.618464 0.971226
-1.500594 1.465348 6.250632 -0.000434 -0.9999999 0 0.695570 0.935140
-1.500594 1.465348 5.89208 -0.000434 -0.9999999 0 0.695570 0.971226
-1.500594 1.65279 5.89208 0 1 -0 0.281500 0.966124
-0.73448 1.652789 6.250632 0 1 -0 0.204395 0.930038
-0.73448 1.652789 5.89208 0 1 -0 0.204395 0.966124
1.504275 1.464043 6.250632 1 -0 0 0.931183 0.711551
-0.465153 2.011703 3.123565 -0.9996935 0 0.02476001 0.832008 0.234061
-0.448734 2.144969 3.786493 -0.9996935 0 0.02476001 0.847406 0.300351
-0.465153 2.16476 3.123565 -0.9996935 0 0.02476001 0.847406 0.233601
-0.251837 1.980289 3.781616 -0.001172 -0.9988798 -0.04730599 0.834299 0.714428
-0.465153 2.011703 3.123565 -0.001172 -0.9988798 -0.04730599 0.767558 0.734251
-0.268255 2.011703 3.118689 -0.001172 -0.9988798 -0.04730599 0.767558 0.714428
-0.268255 2.16476 3.118689 -0.9996935 0 0.02476001 0.484942 0.782975
-0.251837 2.378612 3.781616 -0.9996935 0 0.02476001 0.506465 0.849695
-0.268255 2.378613 3.118689 -0.9996935 0 0.02476001 0.506465 0.782975
-0.251837 2.144969 3.781616 0.000739 0.999555 0.029822 0.583013 0.714907
-0.465153 2.16476 3.123565 0.000739 0.999555 0.029822 0.516273 0.734730
-0.448734 2.144969 3.786493 0.000739 0.999555 0.029822 0.583013 0.734730
-0.268255 2.011703 3.118689 -0.02476001 0 -0.9996935 0.870226 0.376613
-0.465153 2.16476 3.123565 -0.02476001 0 -0.9996935 0.850410 0.392017
-0.268255 2.16476 3.118689 -0.02476001 0 -0.9996935 0.870226 0.392017
-0.448734 1.980289 3.786493 -0.02476001 0 -0.9996935 0.489232 0.974249
-1.720345 2.144969 3.817987 -0.02476001 0 -0.9996935 0.617213 0.957675
-0.448734 2.144969 3.786493 -0.02476001 0 -0.9996935 0.489232 0.957675
-0.243423 2.144969 4.12132 0.02476201 0 0.9996934 0.830839 0.215776
-0.44032 1.980289 4.126197 0.02476201 0 0.9996934 0.850656 0.232350
-0.243423 1.980289 4.12132 0.02476201 0 0.9996934 0.830839 0.232350
-0.448734 2.144969 3.786493 0 1 -0 0.583013 0.734730
-0.243423 2.144969 4.12132 0 1 -0 0.617213 0.714907
-0.251837 2.144969 3.781616 0 1 -0 0.583013 0.714907
-0.251837 2.144969 3.781616 0.9996935 0 -0.02476001 0.790760 0.338490
-0.243423 1.980289 4.12132 0.9996935 0 -0.02476001 0.807334 0.304300
-0.251837 1.980289 3.781616 0.9996935 0 -0.02476001 0.807334 0.338490
-0.448734 1.980289 3.786493 0 -1 -0 0.834299 0.734251
-0.243423 1.980289 4.12132 0 -1 -0 0.868498 0.714428
-0.44032 1.980289 4.126197 0 -1 -0 0.868499 0.734251
-1.720345 1.980289 3.817987 -0.9996935 0 0.02476001 0.789509 0.338490
-1.711932 2.144969 4.157691 -0.9996935 0 0.02476001 0.772934 0.304300
-1.720345 2.144969 3.817987 -0.9996935 0 0.02476001 0.772934 0.338490
-0.44032 2.144969 4.126197 0.02476001 0 0.9996935 0.850656 0.215776
-1.711932 1.980289 4.157691 0.02476001 0 0.9996935 0.978636 0.232350
-0.44032 1.980289 4.126197 0.02476001 0 0.9996935 0.850656 0.232350
-1.720345 1.980289 3.817987 0 -1 0 0.834299 0.862270
-1.711932 2.144969 4.157691 0 1 0 0.617213 0.862750
-0.44032 2.144969 4.126197 0 1 0 0.617213 0.734730
-0.73448 -0.73448 -0.112908 0 -0 -1 0.473495 0.715008
-0.73448 -0.73448 4.715786 -1 0 0 0.473495 0.000626
0.73448 -0.73448 -0.112908 1 -1e-06 0 0.474746 0.000626
-0.73448 0.73448 -0.112908 0 1 0 0.766307 0.487858
-0.73448 -0.73448 5.687723 -1 0 0 0.297562 0.304880
-0.73448 0.73448 4.715786 -0 1 0 0.771683 0.000626
-0.268256 0.73448 3.118689 -0 1 0 0.724760 0.161365
0.276336 0.734479 3.091405 4e-06 1 -2e-06 0.102359 0.479534
0.279273 0.73448 3.774025 4e-06 1 -2e-06 0.102654 0.548236
0.73448 0.734479 4.715786 4e-06 1 -2e-06 0.148468 0.643019
-0.73448 0.73448 1.356052 2e-06 1 -1e-06 0.771683 0.338764
-0.268256 0.73448 3.118689 2e-06 1 -1e-06 0.724760 0.161365
0.276336 0.734479 3.091405 2e-06 1 -1e-06 0.669950 0.164111
0.276336 0.734479 3.091405 -1e-06 1 0 0.102359 0.479534
0.73448 0.734479 4.715786 -1e-06 1 0 0.148468 0.643019
0.73448 0.734479 1.356052 -1e-06 1 0 0.148468 0.304880
0.734479 -0.73448 1.356052 -3e-06 -1 -0 0.325652 0.338764
0.734479 -0.73448 4.715786 -3e-06 -1 -0 0.325653 0.000626
0.241159 -0.734479 3.151869 -3e-06 -1 -0 0.375303 0.158025
0.734479 -0.73448 4.715786 7e-06 -1 -3e-06 0.149720 0.402701
0.287509 -0.734481 3.871234 7e-06 -1 -3e-06 0.194705 0.487700
0.241159 -0.734479 3.151869 7e-06 -1 -3e-06 0.199370 0.560100
-0.301756 -0.734479 3.159657 2e-06 -1 0 0.254011 0.559316
-0.73448 -0.73448 4.715786 2e-06 -1 0 0.297562 0.402701
-0.73448 -0.73448 1.356052 2e-06 -1 0 0.297562 0.740839
0.734479 -0.73448 1.356052 -0 -1 1e-06 0.325652 0.338764
0.241159 -0.734479 3.151869 -0 -1 1e-06 0.375303 0.158025
-0.73448 -0.73448 1.356052 -0 -1 1e-06 0.473495 0.338764
0.73448 0.734479 4.715786 1 -1e-06 0 0.622589 0.486607
-0.268255 2.378613 3.118689 -2e-06 1 1e-06 0.863195 0.709741
-0.251837 2.378612 3.781616 -2e-06 1 1e-06 0.929931 0.709042
0.279273 2.378613 3.774025 -2e-06 1 1e-06 0.929931 0.655583
-0.73448 0.73448 4.715786 0 1 -1e-06 0.000626 0.643019
0.73448 0.734479 4.715786 0 1 -1e-06 0.148468 0.643019
-0.251837 0.734479 3.781616 0 1 -1e-06 0.049201 0.549000
-0.251837 0.734479 3.781616 4e-06 1 1e-06 0.049201 0.549000
-0.268256 0.73448 3.118689 4e-06 1 1e-06 0.047549 0.482280
-0.73448 0.73448 4.715786 4e-06 1 1e-06 0.000626 0.643019
0.276336 0.734479 3.091405 -0.05003602 0 -0.9987475 0.925037 0.248067
-0.268255 2.011703 3.118689 -0.05003602 0 -0.9987475 0.870226 0.376613
0.276336 0.734479 3.091405 -0.05003602 0 -0.9987475 0.999374 0.714428
-0.268256 0.73448 3.118689 -0.05003602 0 -0.9987475 0.948956 0.735926
-0.268255 2.011703 3.118689 -0.05003602 0 -0.9987475 0.999374 0.854171
-0.251837 1.980289 3.781616 0.014291 -0 0.9998979 0.998128 0.991725
-0.251837 0.734479 3.781616 0.014291 -0 0.9998979 0.948956 0.876385
0.279273 0.73448 3.774025 0.014291 -0 0.9998979 0.998128 0.855422
0.279273 0.73448 3.774025 0.014291 -0 0.9998979 0.988337 0.487858
0.279273 2.378613 3.774025 0.014291 -0 0.9998979 0.988337 0.653331
-0.251837 1.980289 3.781616 0.014291 -0 0.9998979 0.934884 0.613242
-0.251837 2.378612 3.781616 0.014291 -0 0.9998979 0.482950 0.738961
0.276336 0.734479 3.091405 0.9999908 -0 -0.004301999 0.069328 0.804503
-0.251837 0.734479 3.781616 -0.9996935 0 0.02476001 0.767558 0.863522
-0.287132 -2.381738 3.840995 -0 -1 -1e-06 0.203143 0.892476
-0.301757 -2.381737 3.159654 -0 -1 -1e-06 0.203143 0.961065
0.241158 -2.381737 3.151865 -0 -1 -1e-06 0.148498 0.960676
-0.73448 -0.73448 4.715786 -4e-06 -1 -1e-06 0.297562 0.402701
-0.301756 -0.734479 3.159657 -4e-06 -1 -1e-06 0.254011 0.559316
-0.287131 -0.73448 3.840999 -4e-06 -1 -1e-06 0.252539 0.490743
-0.287131 -0.73448 3.840999 -1e-06 -1 -0 0.252539 0.490743
0.287509 -0.734481 3.871234 -1e-06 -1 -0 0.194705 0.487700
-0.73448 -0.73448 4.715786 -1e-06 -1 -0 0.297562 0.402701
-0.301757 -2.381737 3.159654 -0.9997697 9.999998e-07 0.021461 0.766244 0.786046
0.287507 -2.381739 3.871231 0.9979308 -9.999998e-07 -0.06429798 0.861232 0.487858
0.241159 -0.734479 3.151869 -0.014344 2e-06 -0.9998971 0.926288 0.248067
-0.287131 -0.73448 3.840999 -0.05254398 -1.999999e-06 0.9986187 0.909196 0.166413
-0.73448 0.73448 5.687723 0 1 0 0.000626 0.740839
0.734479 -0.73448 5.687723 -0 -1 -0 0.149720 0.304880
0.73448 0.734479 5.687723 1 -1e-06 0 0.148468 0.740839
-0.73448 -0.73448 7.129975 -1 0 0 0.325652 0.487858
1.50904 0.734479 5.687723 0 0 -1 0.869750 0.714428
1.510038 -0.73448 5.89208 0 1 -0 0.450240 0.713757
-1.500595 -0.734479 5.89208 -1 0 0 0.547053 0.901439
-1.500594 0.73448 5.89208 -0 0 1 0.830839 0.214524
-0.73448 0.73448 5.89208 0 0 1 0.144137 0.965298
-1.500595 -1.389157 5.89208 -1 0 0 0.317361 0.882007
-1.500595 -0.734479 5.89208 -1 0 0 0.297728 0.944903
-1.500595 -0.734479 5.687723 -1 0 0 0.317361 0.951032
-1.500595 -0.734479 5.687723 -1 0 -0 0.319381 0.709214
-1.500595 -1.564233 5.687723 -1 0 -0 0.319381 0.625704
-1.500595 -1.389157 5.89208 -1 0 -0 0.298814 0.643324
-1.500594 1.65279 5.687723 0 1 0 0.829588 0.000626
-1.500594 1.65279 5.687723 -1 0 0 0.617213 0.956424
-1.500594 0.73448 5.687723 -1 0 0 0.617213 0.864001
-0.73448 1.652789 6.250632 0 1 0 0.772934 0.077731
1.510037 -1.564233 5.687723 1 -0 0 0.934500 0.481335
1.510038 -0.73448 5.687723 1 -0 0 0.850990 0.481335
1.510037 -1.564233 5.687723 -0 -1 -0 0.000626 0.803252
1.510038 -0.73448 5.687723 0 0 -1 0.240891 0.303629
1.510037 -1.39566 5.89208 0 0 1 0.623840 0.481335
1.504275 1.464043 5.89208 1 -0 0 0.317533 0.880756
1.504275 0.734479 5.89208 1 -0 0 0.297728 0.810050
1.504275 0.734479 5.687723 1 -0 0 0.317533 0.804503
1.504275 0.734479 5.687723 1 -0 -0 0.319381 0.532030
1.504275 1.652789 5.687723 1 -0 -0 0.319381 0.624453
1.504275 1.464043 5.89208 1 -0 -0 0.298814 0.605457
1.504275 1.652789 5.687723 0 0 -1 0.767558 0.713177
1.504275 0.734479 5.687723 -0 -1 -0 0.617213 0.713177
1.50904 0.734479 5.89208 1 -1e-06 0 0.325652 0.943505
1.50904 0.734479 5.89208 1e-06 1 -0 0.596646 0.713656
1.509039 -0.734481 5.687723 -1e-06 -1 -0 0.470807 0.713656
0.734479 -0.73448 5.89208 0 -0 1 0.696420 0.933889
-0.73448 -0.73448 7.129975 0 -0 1 0.766307 0.636952
1.504275 1.464043 6.250632 -0.000434 -0.9999999 -0 0.325652 0.864102
-0.73448 1.465015 5.89208 -0 0 1 0.623840 0.413540
-1.500595 -1.389157 6.295418 0.002159999 0.9999977 0 0.281500 0.888193
1.510037 -1.39566 6.295418 1 -0 0 0.917534 0.420174
-0.73448 0.73448 7.129975 0 1 0 0.472058 0.487858
0.734479 -0.73448 7.129975 -0 -1 -0 0.325652 0.635701
0.73448 0.734479 7.129975 1 -1e-06 0 0.472058 0.635701
-0.73448 -1.390812 6.295418 -0 0 1 0.298814 0.304880
-1.500595 -1.389157 6.295418 -0 0 1 0.306781 0.715008
1.510037 -1.564233 6.295418 -0 -1 -0 0.070579 0.846348
-1.500595 -1.564233 6.295418 -1 -0 -0 0.935751 0.481335
-0.73448 -1.390812 6.295418 0.002159999 0.9999977 0 0.296477 0.804503
-0.73448 -1.564233 6.295418 -0 -1 -0 0.226524 0.742090
1.504275 1.464043 6.250632 0 0 1 0.325652 0.942254
-0.73448 1.465015 6.250632 0 0 1 0.402758 0.965324
-1.500594 1.465348 6.250632 -1 -0 -0 0.560559 0.937559
-0.73448 1.465015 6.250632 -0.000434 -0.9999999 -0 0.618464 0.935140
-1.500594 1.65279 6.250632 0 1 0 0.281500 0.930038
1.504275 1.652789 6.250632 1 -0 0 0.950179 0.711551
-0.448734 1.980289 3.786493 -0.9996935 0 0.02476001 0.830839 0.300845
-0.448734 1.980289 3.786493 -0.001172 -0.9988798 -0.04730599 0.834299 0.734251
-0.251837 2.144969 3.781616 -0.9996935 0 0.02476001 0.482950 0.849695
-0.268255 2.16476 3.118689 0.000739 0.999555 0.029822 0.516273 0.714907
-0.465153 2.011703 3.123565 -0.02476001 -0 -0.9996935 0.850410 0.376613
-1.720345 1.980289 3.817987 -0.02476001 -0 -0.9996935 0.617213 0.974250
-0.44032 2.144969 4.126197 0.02476201 -0 0.9996934 0.850656 0.215776
-0.243423 2.144969 4.12132 0.9996935 0 -0.02476001 0.790760 0.304300
-0.251837 1.980289 3.781616 -0 -1 0 0.834299 0.714428
-1.711932 1.980289 4.157691 -0.9996935 0 0.02476001 0.789509 0.304300
-1.711932 2.144969 4.157691 0.02476001 -0 0.9996935 0.978636 0.215776
-1.711932 1.980289 4.157691 0 -1 0 0.868499 0.862270
-1.720345 2.144969 3.817987 0 1 0 0.583013 0.862750
3 0 1 2 
3 3 4 5 
3 6 7 8 
3 9 10 11 
3 3 12 13 
3 14 15 16 
3 17 18 19 
3 20 21 22 
3 23 24 25 
3 26 27 28 
3 29 30 31 
3 32 33 34 
3 35 36 37 
3 38 39 40 
3 41 42 43 
3 44 45 46 
3 47 48 49 
3 50 51 52 
3 53 54 55 
3 56 57 58 
3 59 60 61 
3 62 63 64 
3 65 66 67 
3 68 69 70 
3 71 72 73 
3 74 75 76 
3 77 78 79 
3 80 81 82 
3 83 84 85 
3 86 87 88 
3 89 90 91 
3 92 93 94 
3 95 96 97 
3 98 99 100 
3 101 102 103 
3 94 104 105 
3 106 107 108 
3 95 109 110 
3 111 112 113 
3 97 114 115 
3 90 116 91 
3 113 117 118 
3 119 120 121 
3 103 122 101 
3 95 123 124 
3 125 126 127 
3 128 129 130 
3 113 131 111 
3 132 133 134 
3 135 136 137 
3 138 139 140 
3 141 142 143 
3 144 145 146 
3 147 148 149 
3 150 151 152 
3 153 154 155 
3 156 157 158 
3 159 160 161 
3 162 163 164 
3 165 166 87 
3 167 168 66 
3 169 170 171 
3 172 173 174 
3 175 176 177 
3 178 179 180 
3 107 181 108 
3 182 183 184 
3 101 185 186 
3 187 188 189 
3 190 191 192 
3 193 194 195 
3 196 197 198 
3 199 200 201 
3 129 202 130 
3 203 204 205 
3 206 207 208 
3 209 210 211 
3 212 213 214 
3 215 216 217 
3 218 219 220 
3 221 222 223 
3 224 225 226 
3 227 228 229 
3 230 231 232 
3 233 234 235 
3 236 237 238 
3 232 239 230 
3 224 240 241 
3 0 242 1 
3 3 243 4 
3 26 28 244 
3 9 23 10 
3 3 5 12 
3 14 245 15 
3 17 246 18 
3 21 247 248 
3 249 250 251 
3 252 253 254 
3 255 256 257 
3 258 259 260 
3 261 262 263 
3 264 265 266 
3 267 268 269 
3 26 270 27 
3 271 272 273 
3 274 275 276 
3 277 278 279 
3 37 280 281 
3 281 35 37 
3 282 283 284 
3 285 286 287 
3 288 289 290 
3 291 39 38 
3 41 292 42 
3 44 293 45 
3 294 295 296 
3 297 298 299 
3 300 301 302 
3 53 303 54 
3 56 304 57 
3 59 305 60 
3 62 306 63 
3 65 167 66 
3 68 307 69 
3 71 308 72 
3 74 309 75 
3 77 310 78 
3 80 311 81 
3 83 312 84 
3 86 165 87 
3 89 313 90 
3 92 314 93 
3 95 110 96 
3 98 315 99 
3 101 186 102 
3 94 93 104 
3 316 317 318 
3 319 320 321 
3 95 124 109 
3 111 322 112 
3 97 96 114 
3 323 324 193 
3 193 195 323 
3 113 325 117 
3 326 327 162 
3 162 164 326 
3 103 328 122 
3 95 329 123 
3 125 330 126 
3 331 332 333 
3 334 335 336 
3 113 118 131 
3 132 337 133 
3 135 338 136 
3 138 339 139 
3 141 340 142 
3 144 341 145 
3 147 342 148 
3 150 343 151 
3 153 344 154 
3 156 345 157 
3 159 346 160 
3 162 347 163 
3 165 348 166 
3 167 349 168 
3 169 350 170 
3 172 351 173 
3 175 352 176 
3 178 353 179 
3 107 354 181 
3 182 355 183 
3 101 356 185 
3 187 357 188 
3 190 358 191 
3 193 359 194 
3 196 360 197 
3 199 361 200 
3 129 362 202 
3 203 363 204 
3 206 364 207 
3 209 365 210 
3 212 366 213 
3 215 367 216 
3 218 368 219 
3 221 369 222 
3 224 241 225 
3 227 370 228 
3 230 371 231 
3 233 372 234 
3 236 373 237 
3 232 374 239 
3 224 375 240 
