{
"Languages" :{
	"English" : [
	"This a project demonstrating AI",
	"The red flag marks the current position",
	"The yellow flag marks the start position",
	"The blue flag marks the ending position",
	"This is using the A* path finding algorithm",
	"Once it reaches the end it will take the found",
	"path back to the start",
	"Current language is English",
	"Press the number keys for different languages",
	"1:English, 2:Swahili, 3:Xhosa, 4:Zulu, 5:Somali"
	],	
	"Swahili" : [
	"Huu ni mradi unaoonyesha AI",
	"Bendera nyekundu alama nafasi ya sasa",
	"Bendera ya njano alama alama ya kuanza",
	"Bendera ya bluu alama alama ya mwisho",
	"Hii inatumia njia ya A * kutafuta algorithm",
	"Mara ikafikia mwisho itachukua kupatikana",
	"Njia ya kurudi mwanzo",
	"Lugha ya sasa ni Kiswahili",
	"Bonyeza funguo za nambari kwa lugha tofauti",
	"1: Kiingereza, 2: Swahili, 3: Kixhosa, 4: Kizulu, 5: Kisomali"
	],	
	"Xhosa": [
	"Le projekthi ibonisa i-AI",
	"Ifulegi ebomvu ibonisa isikhundla samanje",
	"Ifulegi ephuzi ibonisa isikhundla sokuqala",
	"Ifulegi eluhlaza okwesibhakabhaka ibonisa isikhundla sokuphela",
	"Oku kusetyenziswa indlela * yokufumana i-algorithm",
	"Xa ithe yafika ekupheleni iya kuthatha ifunyenwe",
	"umendo ukuya ekuqaleni",
	"Ulwimi olukhoyo ngesiXhosa",
	"Cinezela iinombolo zeenombolo kwiilwimi ezahlukeneyo",
	"1: isiNgesi, 2: isiSwahili, 3: isiXhosa, 4: isiZulu, isi-5: isiSomali"
	],
	"Zulu": [
	"Le phrojekthi ekhombisa i-AI",
	"Ifulegi elibomvu libonisa isikhundla samanje",
	"Ifulegi eliphuzi libonisa isikhundla sokuqala",
	"Ifulegi elihlaza okwesibhakabhaka libonisa isikhundla sokuphela",
	"Lokhu kusebenzisa i-A * endleleni yokuthola i-algorithm",
	"Uma sesifinyelele ekupheleni kuyothatha okutholiwe",
	"ukubuyela emuva ekuqaleni",
	"Ulimi lwamanje nguZulu",
	"Cindezela izinkinobho zamanani ezilimi ezahlukene",
	"1: isiNgisi, 2: isiSwahili, 3: isiXhosa, 4: Zulu, 5: iSomalia"
	],
	"Somali": [
	"Mashruucan muujinaya AI",
	"Calanka cas ayaa calaamad u ah jagada hadda",
	"Calanka jaalaha ah wuxuu tilmaamayaa booska bilowga",
	"Calanka buluuga ah wuxuu tilmaamayaa jagada ugu dambeysa",
	"Tani waxay adeegsaneysaa A * raadinta algorithm",
	"Marka ay gaadho dhamaadka waxay helaysaa helitaanka",
	"waddada dib u bilowdo",
	"Luqadda hadda waa Soomaali",
	"Riix badhanka lambarada luuqadaha kala duwan",
	"1: Ingiriis, 2: Swahili, 3: Xhosa, 4: Zulu, 5: Soomaali"
	]
	}
}