ply
format ascii 1.0
comment VCGLIB generated
element vertex 673
property float x
property float y
property float z
property float nx
property float ny
property float nz
property float texture_u
property float texture_v
element face 300
property list uchar int vertex_indices
end_header
-0.902557 1.766077 -0.879808 -0.987673 0.156532 0.000706 0.239349 0.565401
-0.860599 2.023094 0.834589 -0.987673 0.156532 0.000706 0.000780 0.531043
-0.860598 2.030835 -0.881337 -0.987673 0.156532 0.000706 0.239349 0.528589
1 0.046357 1 0 -1 0 0.096314 0.696136
0.749475 0.046357 1.098193 0 -1 0 0.131147 0.709788
0.749475 0.046357 1 0 -1 0 0.131147 0.696136
-0.744286 2.043619 -0.310071 0.999821 -1e-06 -0.018942 0.522378 0.376287
-0.757357 2.132374 -1 0.999821 -1e-06 -0.018942 0.510038 0.280360
-0.719466 2.132374 1 0.999821 -1e-06 -0.018942 0.510038 0.558437
-0.999999 2.132374 -1.051016 0 -0 -1 0.794780 0.560009
-0.757357 2.132374 -1.051016 0 -0 -1 0.828508 0.560770
-0.757357 2.046357 -1.051016 0 -0 -1 0.828238 0.572727
-1 2.132374 1.112149 -0 0 1 0.691782 0.253537
-1 2.021842 1.112149 -0 0 1 0.691782 0.238169
-0.719466 2.046357 1.112149 -0 0 1 0.652777 0.241577
-0.721477 0.523058 -1 0 -0 -1 0.604899 0.480864
0.720212 0.046357 -1 0 -0 -1 0.671179 0.280414
-0.710249 0.046357 -1 0 -0 -1 0.671179 0.479303
-1 0.046357 -1 -0 -1 -0 0.245164 0.772960
-0.710249 0.046357 -1.051015 -0 -1 -0 0.285450 0.780053
-0.710249 0.046357 -1 -0 -1 -0 0.285450 0.772960
-0.730722 0.91554 -1 0.999723 0.023548 -1e-06 0.965117 0.121611
-0.710249 0.046357 -1.051015 0.999723 0.023548 -1e-06 0.958024 0.000761
-0.757357 2.046357 -1.051016 0.999723 0.023548 -1e-06 0.958024 0.278838
0.749475 0.046357 1.098193 0 0 1 0.791875 0.560314
1 1.982852 1.098193 0 0 1 0.754313 0.829194
0.729187 2.046357 1.098193 0 0 1 0.791875 0.838405
-0.719466 2.046357 1 -0 0 1 0.598329 0.887287
0.731546 1.813797 1 -0 0 1 0.631880 0.685740
0.729187 2.046357 1 -0 0 1 0.599544 0.685873
-1 0.046357 -1 -1 0 -0 0.867247 0.000866
-0.999999 2.030835 -0.881337 -1 0 -0 0.885338 0.276684
-0.999999 2.0316 -1.051016 -1 0 -0 0.861747 0.276927
-0.730184 0.046357 1 0 -1 0 0.463565 0.598245
-1 0.046357 1.112149 0 -1 0 0.479159 0.560730
-1 0.046357 1 0 -1 0 0.463565 0.560730
-0.724223 1.158637 1.041689 0.999986 -0.005359 1e-06 0.660225 0.637036
-0.719466 2.046357 1.112149 0.999986 -0.005359 1e-06 0.670021 0.760463
-0.730184 0.046357 1.112149 0.999986 -0.005359 1e-06 0.670021 0.482387
-0.750135 2.067585 -0.618775 0 0.998453 -0.055598 0.303676 0.506199
0.721707 2.046357 -1 0 0.998453 -0.055598 0.508515 0.558439
-0.757357 2.046357 -1 0 0.998453 -0.055598 0.302870 0.559208
0.721707 2.046357 -1 -1 0 -1e-06 0.011465 0.791691
0.721707 2.09445 -1.063707 -1 0 -1e-06 0.000761 0.794622
0.721707 2.046357 -1.063707 -1 0 -1e-06 0.003238 0.788410
0.721298 1.499341 -1 -1 0.000748 0 0.039634 0.721044
0.721707 2.046357 -1.063707 -1 0.000748 0 0.003238 0.788410
0.721034 1.145773 -1 -1 0.000748 0 0.057841 0.675380
1 0.046357 -1 0 -1 0 0.641417 0.206226
0.720212 0.046357 -1.063707 0 -1 0 0.650274 0.245128
1 0.046357 -1.063707 0 -1 0 0.650274 0.206226
0.728331 2.021115 0.771187 0 0.99397 -0.109652 0.508515 0.312174
-0.719466 2.046357 1 0 0.99397 -0.109652 0.307098 0.281113
0.729187 2.046357 1 0 0.99397 -0.109652 0.508515 0.280360
0.721707 2.09445 -1 0 1 0 0.792942 0.280360
0.729187 2.09445 1 0 1 0 0.792942 0.558439
1 2.09445 0.838286 0 1 0 0.755205 0.536095
0.741049 0.877004 1.041689 -0.999949 -0.010143 -0 0.933891 0.116253
0.749475 0.046357 1.098193 -0.999949 -0.010143 -0 0.941747 0.000761
0.729187 2.046357 1.098193 -0.999949 -0.010143 -0 0.941747 0.278838
0.729187 2.046357 1.098193 -1 0 0 0.952683 0.287047
0.729187 2.09445 1 -1 0 0 0.966336 0.280360
0.729187 2.046357 1 -1 0 0 0.966336 0.287047
0.726737 2.021115 0.344935 -0.999993 -0 0.00374 0.955636 0.651243
0.728331 2.021115 0.771187 -0.999993 -0 0.00374 0.954661 0.591986
0.729187 2.09445 1 -0.999993 -0 0.00374 0.964332 0.560009
1 1.99973 -1.063707 1 -0 -0 0.482284 0.831199
1 1.998255 -0.874751 1 -0 -0 0.508515 0.832677
1 0.046357 -1 1 -0 -0 0.508515 0.560730
0.724267 2.043619 -0.315619 -0.000104 0.998001 0.063195 0.508515 0.463283
-0.738086 2.022391 0.017201 -0.000104 0.998001 0.063195 0.305021 0.417769
0.72552 2.022391 0.019619 -0.000104 0.998001 0.063195 0.508515 0.416671
-0.757357 2.132374 -1 0 1 0 0.833025 0.558487
-1 2.132374 0.833926 0 1 0 0.794464 0.304185
-0.719466 2.132374 1 0 1 0 0.833025 0.280360
-0.757357 2.046357 -1.051016 1 -1e-06 0 0.954661 0.945762
-0.757357 2.132374 -1 1 -1e-06 0 0.961754 0.957722
-0.757357 2.046357 -1 1 -1e-06 0 0.961754 0.945762
-0.719466 2.046357 1 1 -1e-06 1e-06 0.521997 0.558437
-0.719466 2.132374 1.112149 1 -1e-06 1e-06 0.510038 0.574030
-0.719466 2.046357 1.112149 1 -1e-06 1e-06 0.521997 0.574030
0.726737 2.021115 0.344935 0 1 0 0.508515 0.371440
-0.724299 2.021115 0.744891 0 1 0 0.306559 0.316586
0.728331 2.021115 0.771187 0 1 0 0.508515 0.312174
0.72552 2.022391 0.019619 -2e-06 0.999992 0.003922 0.508515 0.416671
-0.73189 2.021115 0.344235 -2e-06 0.999992 0.003922 0.305712 0.372296
0.726737 2.021115 0.344935 -2e-06 0.999992 0.003922 0.508515 0.371440
0.721707 2.046357 -1.063707 0 -0 -1 0.752786 0.558437
1 1.99973 -1.063707 0 -0 -1 0.714088 0.551982
0.720212 0.046357 -1.063707 0 -0 -1 0.752791 0.280360
0.723082 2.067585 -0.632454 0.000285 0.997151 0.075426 0.508515 0.507335
-0.744286 2.043619 -0.310071 0.000285 0.997151 0.075426 0.304329 0.463275
0.724267 2.043619 -0.315619 0.000285 0.997151 0.075426 0.508515 0.463283
-0.751596 1.801753 -1 0 -0 -1 0.001588 0.849044
0.721707 2.046357 -1 0 -0 -1 0.206408 0.814882
0.72152 1.796215 -1 0 -0 -1 0.206408 0.849661
0.721298 1.499341 -1 1 -0.000748 0 0.039634 0.721044
0.72152 1.796215 -1.039374 1 -0.000748 0 0.019261 0.757358
0.72152 1.796215 -1 1 -0.000748 0 0.024347 0.759385
-0.737059 1.184586 -1 0 -0 -1 0.352503 0.562166
0.721298 1.499341 -1 0 -0 -1 0.397903 0.764574
0.721034 1.145773 -1 0 -0 -1 0.348745 0.764934
-0.730722 0.91554 -1 0 -0 -1 0.871960 0.482414
0.721034 1.145773 -1 0 -0 -1 0.841264 0.280360
0.720869 0.924995 -1 0 -0 -1 0.871960 0.280583
-0.721477 0.523058 -1 0.032753 -0.999464 0 0.982356 0.998969
0.720603 0.570315 -1.034112 0.032753 -0.999464 0 0.987099 0.798464
0.720603 0.570315 -1 0.032753 -0.999464 0 0.982356 0.798464
0.731546 1.813797 1 0.999949 0.010143 -0 0.966336 0.319382
0.734516 1.520989 1.042039 0.999949 0.010143 -0 0.960491 0.360093
0.734516 1.520989 1 0.999949 0.010143 -0 0.966336 0.360093
-0.72235 1.508309 1 -0.001376 0.158068 0.987427 0.562888 0.203974
0.737158 1.260588 1.041689 -0.001376 0.158068 0.987427 0.597920 0.001147
0.734516 1.520989 1 -0.001376 0.158068 0.987427 0.561714 0.001409
-0.724223 1.158637 1.041689 -0 1e-06 1 0.611505 0.204375
0.741049 0.877004 1.041689 -0 1e-06 1 0.651255 0.000761
0.737158 1.260588 1.041689 -0 1e-06 1 0.597920 0.001147
0.741049 0.877004 1.041689 0.999949 0.010143 -0 0.933891 0.116253
0.744887 0.498663 1.063198 0.999949 0.010143 -0 0.936881 0.063649
0.744887 0.498663 1 0.999949 0.010143 -0 0.928094 0.063649
-0.727921 0.468644 1 -0 0 1 0.001671 0.613063
0.749475 0.046357 1 -0 0 1 0.206480 0.673858
0.744887 0.498663 1 -0 0 1 0.206480 0.610967
-0.999999 2.0316 -1.051016 -1 1e-06 -1e-06 0.680222 0.278838
-0.999999 2.132374 -0.881923 -1 1e-06 -1e-06 0.694233 0.255327
-0.999999 2.132374 -1.051016 -1 1e-06 -1e-06 0.694233 0.278838
-1 0.046357 -0.869881 -0 0.005773 0.999983 0.569105 0.938969
-0.860599 0.480795 -0.872389 -0 0.005773 0.999983 0.588487 0.878565
-0.860598 1.175178 -0.876397 -0 0.005773 0.999983 0.588487 0.782019
-0.999999 2.030835 -0.881337 -1 -0 -1e-06 0.208084 0.852443
-1 2.132374 0.833926 -1 -0 -1e-06 0.446571 0.866561
-0.999999 2.132374 -0.881923 -1 -0 -1e-06 0.208002 0.866561
-1 0.046357 0.84658 -1 -0 -0 0.873482 0.282139
-1 0.046357 1 -1 -0 -0 0.894739 0.280360
-1 2.023094 0.834589 -1 -0 -0 0.894739 0.556163
-1 2.023094 0.834589 -1 -0 -0 0.446663 0.851367
-1 2.132374 1.112149 -1 -0 -0 0.485254 0.866561
-1 2.132374 0.833926 -1 -0 -0 0.446571 0.866561
1 1.984876 0.838952 1 -0 0 0.265304 0.270290
1 2.09445 1.098193 1 -0 0 0.301348 0.285524
1 1.982852 1.098193 1 -0 0 0.301348 0.270008
1 2.09445 -0.876465 1 0 -0 0.026795 0.285524
1 1.99973 -1.063707 1 0 -0 0.000761 0.272355
1 2.09445 -1.063707 1 0 -0 0.000761 0.285524
1 1.998255 -0.874751 -0 0.01781 0.999841 0.917962 0.799801
0.864732 1.200197 -0.860535 -0 0.01781 0.999841 0.908776 0.911969
0.903987 0.886984 -0.854956 -0 0.01781 0.999841 0.917962 0.954886
1 2.09445 0.838286 1 0 0 0.265211 0.285524
1 1.998255 -0.874751 1 0 0 0.027033 0.272150
1 1.982852 1.098193 1 -0 0 0.942758 0.829256
1 0.046357 1.098193 1 -0 0 0.942758 0.560009
1 0.046357 1 1 -0 0 0.929106 0.560009
0.864732 0.046357 -0.839982 0 -1 -0 0.537943 0.019569
0.896616 0.046357 0.850722 0 -1 -0 0.302870 0.015135
0.864731 0.046357 0.850722 0 -1 -0 0.302870 0.019569
1 1.984876 0.838952 0 -0.99997 -0.007807 0.908776 0.798279
0.864732 1.998255 -0.874751 0 -0.99997 -0.007807 0.927584 0.560009
1 1.998255 -0.874751 0 -0.99997 -0.007807 0.908776 0.560009
1 0.046357 0.850722 1e-06 -0.006072 -0.999982 0.926572 0.270290
0.903987 0.921996 0.845405 1e-06 -0.006072 -0.999982 0.913223 0.148542
1 1.984876 0.838952 1e-06 -0.006072 -0.999982 0.926572 0.000761
0.864732 1.998255 -0.874751 0 -0.01781 -0.999841 0.199980 0.726216
0.910502 1.784721 -0.870948 0 -0.01781 -0.999841 0.206344 0.755906
0.864732 1.784721 -0.870948 0 -0.01781 -0.999841 0.199980 0.755906
-0.744752 1.511185 -1.039375 0 -0 -1 0.549081 0.576655
0.72152 1.796215 -1.039374 0 -0 -1 0.589478 0.780373
0.721298 1.499341 -1.039374 0 -0 -1 0.548201 0.780497
-0.902558 1.566633 0.837358 1e-06 -0.006066 -0.999982 0.950591 0.212489
-0.860599 1.269341 0.839161 1e-06 -0.006066 -0.999982 0.943269 0.171391
-1 0.046357 0.84658 1e-06 -0.006066 -0.999982 0.956502 0.000761
-0.999999 2.030835 -0.881337 0 -0.99999 -0.004511 0.652906 0.685740
-0.860599 2.023094 0.834589 0 -0.99999 -0.004511 0.633524 0.924319
-1 2.023094 0.834589 0 -0.99999 -0.004511 0.652906 0.924319
-0.710249 0.046357 -1 0 -1 -0 0.560192 0.238551
-0.860599 0.046357 -0.869881 0 -1 -0 0.542100 0.259456
0.864732 1.519142 -0.866217 1 -0 0 0.751015 0.567262
0.864732 1.764238 0.840291 1 -0 0 0.717384 0.804596
0.864732 1.52236 0.84176 1 -0 0 0.751015 0.804737
0.864732 1.200197 -0.860535 0 -0.999871 0.016027 0.982356 0.796942
0.903287 1.227511 0.84355 0 -0.999871 0.016027 0.987716 0.560009
0.864732 1.227511 0.84355 0 -0.999871 0.016027 0.982356 0.560009
0.903987 0.921996 0.845405 0.991846 0.127428 -0.002042 0.237713 0.380203
0.864732 1.200197 -0.860535 0.991846 0.127428 -0.002042 0.000761 0.420323
0.864732 1.227511 0.84355 0.991846 0.127428 -0.002042 0.237713 0.422682
0.903987 0.62085 0.847234 1 0 0 0.237713 0.338331
0.903987 0.886984 -0.854956 1 0 0 0.001272 0.376770
0.903987 0.921996 0.845405 1 0 0 0.237713 0.380203
0.864732 0.37462 -0.845829 0.99435 -0.105873 -0.007657 0.002109 0.305526
0.903987 0.62085 0.847234 0.99435 -0.105873 -0.007657 0.237713 0.338331
0.864731 0.252007 0.849474 0.99435 -0.105873 -0.007657 0.237713 0.287047
-0.902557 1.766077 -0.879808 -1 -0 -0 0.239349 0.565401
-0.902558 1.566633 0.837358 -1 -0 -0 0.000761 0.594509
-0.902558 1.784576 0.836036 -1 -0 -0 0.000770 0.564206
-0.860599 1.269341 0.839161 0.145513 -0.987869 0.054222 0.982183 0.280414
-0.903367 1.1689 -0.87601 0.145513 -0.987869 0.054222 0.976237 0.518888
-0.860598 1.175178 -0.876397 0.145513 -0.987869 0.054222 0.982183 0.518942
-0.860598 1.175178 -0.876397 -0.98301 -0.183274 0.010059 0.516165 0.576266
-0.811437 1.005743 0.84076 -0.98301 -0.183274 0.010059 0.546679 0.814228
-0.860599 1.269341 0.839161 -0.98301 -0.183274 0.010059 0.510038 0.815075
-0.811437 0.955662 -0.87513 -1 -0 -0 0.000787 0.521551
-0.811437 0.767221 0.842207 -1 -0 -0 0.239400 0.493903
-0.811437 1.005743 0.84076 -1 -0 -0 0.239399 0.527067
-0.811437 0.751004 -0.873949 -0.972419 0.233232 -0.002204 0.000779 0.493095
-0.860599 0.562262 0.84345 -0.972419 0.233232 -0.002204 0.239399 0.465405
-0.811437 0.767221 0.842207 -0.972419 0.233232 -0.002204 0.239400 0.493903
-0.860599 0.480795 -0.872389 -1 -0 -0 0.000768 0.455525
-0.860599 0.26594 0.845248 -1 -0 -0 0.239400 0.424204
-0.860599 0.562262 0.84345 -1 -0 -0 0.239399 0.465405
-0.860599 0.046357 -0.869881 -0 -0.005773 -0.999983 0.394777 0.803934
-0.909914 0.315906 -0.871437 -0 -0.005773 -0.999983 0.387921 0.766456
-0.860599 0.315906 -0.871437 -0 -0.005773 -0.999983 0.394777 0.766456
-0.751596 1.801753 -1 -0.999723 -0.023548 -0 0.961754 0.911753
-0.744752 1.511185 -1.039375 -0.999723 -0.023548 -0 0.956279 0.871353
-0.744752 1.511185 -1 -0.999723 -0.023548 -0 0.961754 0.871353
0.72152 1.796215 -1 0.003759 0.999993 0 0.991073 0.280360
-0.751596 1.801753 -1.039375 0.003759 0.999993 0 0.996547 0.485180
-0.751596 1.801753 -1 0.003759 0.999993 0 0.991073 0.485180
-0.744752 1.511185 -1 -0.008079 -0.999967 -0 0.991785 0.204598
0.721298 1.499341 -1.039374 -0.008079 -0.999967 -0 0.997259 0.000761
0.721298 1.499341 -1 -0.008079 -0.999967 -0 0.991785 0.000761
0.720603 0.570315 -1.034112 0 -0 -1 0.603593 0.683860
-0.730722 0.91554 -1.034113 0 -0 -1 0.652906 0.482387
0.720869 0.924995 -1.034112 0 -0 -1 0.652906 0.684218
0.720603 0.570315 -1 1 -0.000748 0 0.199980 0.724694
0.720869 0.924995 -1.034112 1 -0.000748 0 0.204723 0.675380
0.720869 0.924995 -1 1 -0.000748 0 0.199980 0.675380
-0.730722 0.91554 -1 -0.999723 -0.023548 -0 0.965117 0.121611
-0.721477 0.523058 -1.034113 -0.999723 -0.023548 -0 0.960374 0.067041
-0.721477 0.523058 -1 -0.999723 -0.023548 -0 0.965117 0.067041
0.720869 0.924995 -1 -0.006513 0.999979 0 0.994496 0.797243
-0.730722 0.91554 -1.034113 -0.006513 0.999979 0 0.999239 0.999070
-0.730722 0.91554 -1 -0.006513 0.999979 0 0.994496 0.999070
-0.945326 1.443032 -0.877593 -0.990149 -0.13969 0.009554 0.402642 0.562599
-0.903367 1.263062 0.839548 -0.990149 -0.13969 0.009554 0.440712 0.799617
-0.945326 1.560354 0.837745 -0.990149 -0.13969 0.009554 0.399425 0.801632
-0.860599 1.269341 0.839161 0.007993 0.007194 0.999942 0.943269 0.171391
-0.945326 1.560354 0.837745 0.007993 0.007194 0.999942 0.956502 0.211402
-0.903367 1.263062 0.839548 0.007993 0.007194 0.999942 0.949180 0.170304
-0.902558 1.449311 -0.87798 -0.008021 -0.007 -0.999943 0.892694 0.195825
-0.903367 1.1689 -0.87601 -0.008021 -0.007 -0.999943 0.892807 0.156838
-0.945326 1.443032 -0.877593 -0.008021 -0.007 -0.999943 0.898641 0.194952
-0.902558 1.449311 -0.87798 -0.145513 0.98705 -0.06751 0.982895 0.239313
-0.945326 1.560354 0.837745 -0.145513 0.98705 -0.06751 0.976949 0.000761
-0.902558 1.566633 0.837358 -0.145513 0.98705 -0.06751 0.982895 0.000815
-0.909914 0.26594 0.845248 -1 0 0 0.679649 0.799516
-0.909914 0.046357 -0.869881 -1 0 0 0.710179 0.561048
-0.909914 0.046357 0.84658 -1 0 0 0.710179 0.799702
-0.860599 0.26594 0.845248 0 0.006066 0.999982 0.567583 0.921531
-0.909914 0.046357 0.84658 0 0.006066 0.999982 0.560726 0.952061
-0.860599 0.046357 0.84658 0 0.006066 0.999982 0.567583 0.952061
-0.860599 0.046357 0.84658 0 -1 0 0.303446 0.259456
-0.909914 0.046357 -0.869881 0 -1 0 0.542100 0.266312
-0.860599 0.315906 -0.871437 0 0.999577 0.029094 0.974715 0.519045
-0.909914 0.26594 0.845248 0 0.999577 0.029094 0.967858 0.280360
-0.860599 0.26594 0.845248 0 0.999577 0.029094 0.974715 0.280360
-0.720759 1.805034 1.042039 -0 -0 1 0.818972 0.202749
0.734516 1.520989 1.042039 -0 -0 1 0.860225 0.000761
0.731546 1.813797 1.042039 -0 -0 1 0.819511 0.000820
-0.720759 1.805034 1 -0.006034 0.999982 0 0.990263 0.202687
0.731546 1.813797 1.042039 -0.006034 0.999982 0 0.984417 0.000761
0.731546 1.813797 1 -0.006034 0.999982 0 0.990263 0.000761
0.734516 1.520989 1 0.008703 -0.999962 0 0.989551 0.280360
-0.72235 1.508309 1.042039 0.008703 -0.999962 0 0.983706 0.482920
-0.72235 1.508309 1 0.008703 -0.999962 0 0.989551 0.482920
-0.72235 1.508309 1 -0.999986 0.005359 0 0.596807 0.558437
-0.720759 1.805034 1.042039 -0.999986 0.005359 0 0.555550 0.564282
-0.720759 1.805034 1 -0.999986 0.005359 0 0.555550 0.558437
-0.725755 0.872742 1.063198 -0 -0 1 0.301348 0.287511
0.744887 0.498663 1.063198 -0 -0 1 0.248743 0.491835
0.741049 0.877004 1.063198 -0 -0 1 0.301348 0.491454
0.741049 0.877004 1.041689 -0.002906 0.999996 0 0.243190 0.610967
-0.725755 0.872742 1.063198 -0.002906 0.999996 0 0.240199 0.814909
0.741049 0.877004 1.063198 -0.002906 0.999996 0 0.240199 0.610967
0.744887 0.498663 1 0.020378 -0.999792 0 0.975427 0.000761
-0.727921 0.468644 1.063198 0.020378 -0.999792 0 0.966640 0.205538
-0.727921 0.468644 1 0.020378 -0.999792 0 0.975427 0.205538
-0.725755 0.872742 1.041689 -0.999986 0.005359 0 0.664225 0.801736
-0.727921 0.468644 1.063198 -0.999986 0.005359 0 0.661234 0.857921
-0.725755 0.872742 1.063198 -0.999986 0.005359 0 0.661234 0.801736
0.903287 1.200197 -0.860535 1 -0 0 0.347223 0.560809
0.903287 1.52236 0.84176 1 -0 0 0.306229 0.798181
0.903287 1.227511 0.84355 1 -0 0 0.347223 0.797773
0.864732 1.200197 -0.860535 0 -0.01781 -0.999841 0.089470 0.787797
0.903287 1.519142 -0.866217 0 -0.01781 -0.999841 0.089457 0.743129
0.903287 1.200197 -0.860535 0 -0.01781 -0.999841 0.094792 0.787153
0.864732 1.227511 0.84355 -0 0.006072 0.999982 0.078171 0.675380
0.903287 1.52236 0.84176 -0 0.006072 0.999982 0.072810 0.716375
0.864732 1.52236 0.84176 -0 0.006072 0.999982 0.078171 0.716375
0.864732 1.52236 0.84176 0 0.999998 -0.001884 0.591000 0.575552
0.903287 1.519142 -0.866217 0 0.999998 -0.001884 0.596360 0.813026
0.864732 1.519142 -0.866217 0 0.999998 -0.001884 0.591000 0.813026
0.910502 1.784721 -0.870948 1 -0 0 0.208992 0.848910
0.910502 1.984876 0.838952 1 -0 0 0.238677 0.611393
0.910502 1.764238 0.840291 1 -0 0 0.208002 0.610967
0.864732 1.984876 0.838952 -0 0.999969 0.007807 0.927584 0.798279
0.910502 1.998255 -0.874751 -0 0.999969 0.007807 0.921220 0.560009
0.864732 1.998255 -0.874751 -0 0.999969 0.007807 0.927584 0.560009
0.864732 1.784721 -0.870948 0 -0.999928 -0.011969 0.974470 0.797936
0.910502 1.764238 0.840291 0 -0.999928 -0.011969 0.980833 0.560009
0.864732 1.764238 0.840291 0 -0.999928 -0.011969 0.974470 0.560009
0.864732 1.984876 0.838952 0 0.006072 0.999982 0.078171 0.780683
0.910502 1.764238 0.840291 0 0.006072 0.999982 0.071807 0.750006
0.910502 1.984876 0.838952 0 0.006072 0.999982 0.071807 0.780683
0.896616 0.046357 -0.839982 1 0 0 0.698418 0.001574
0.896616 0.252007 0.849474 1 0 0 0.669825 0.236473
0.896616 0.046357 0.850722 1 0 0 0.698418 0.236647
0.864731 0.252007 0.849474 -0 0.997395 0.072137 0.994496 0.560009
0.896616 0.37462 -0.845829 -0 0.997395 0.072137 0.998929 0.795721
0.864732 0.37462 -0.845829 -0 0.997395 0.072137 0.994496 0.795721
0.864731 0.046357 0.850722 -0 0.006072 0.999982 0.907765 0.270290
0.896616 0.252007 0.849474 -0 0.006072 0.999982 0.912198 0.241696
0.864731 0.252007 0.849474 -0 0.006072 0.999982 0.907765 0.241696
0.864732 0.37462 -0.845829 0 -0.01781 -0.999841 0.632952 0.278838
0.896616 0.046357 -0.839982 0 -0.01781 -0.999841 0.678593 0.274405
0.864732 0.046357 -0.839982 0 -0.01781 -0.999841 0.678593 0.278838
-0.902557 1.766077 -0.879808 -0.984877 0.173245 -0.001868 0.239349 0.565401
-0.902558 1.784576 0.836036 -0.984877 0.173245 -0.001868 0.000770 0.564206
-0.860599 2.023094 0.834589 -0.984877 0.173245 -0.001868 0.000780 0.531043
1 0.046357 1.098193 0 -1 0 0.096314 0.709788
-0.719466 2.046357 1 0.999821 -1e-06 -0.018942 0.521997 0.558437
-0.724299 2.021115 0.744891 0.999821 -1e-06 -0.018942 0.525507 0.522967
-0.724299 2.021115 0.744891 0.999821 -0 -0.018942 0.525507 0.522967
-0.73189 2.021115 0.344235 0.999821 -0 -0.018942 0.525507 0.467260
-0.719466 2.132374 1 0.999821 -0 -0.018942 0.510038 0.558437
-0.738086 2.022391 0.017201 0.999821 0 -0.018942 0.525330 0.421790
-0.744286 2.043619 -0.310071 0.999821 0 -0.018942 0.522378 0.376287
-0.750135 2.067585 -0.618775 0.999821 -1e-06 -0.018942 0.179872 0.702936
-0.757357 2.046357 -1 0.999821 -1e-06 -0.018942 0.168082 0.754697
-0.757357 2.132374 -1 0.999821 -1e-06 -0.018942 0.179872 0.756701
-0.757357 2.132374 -1 0.999821 -1e-06 -0.018942 0.243642 0.538404
-0.744286 2.043619 -0.310071 0.999821 -1e-06 -0.018942 0.243642 0.441686
-0.750135 2.067585 -0.618775 0.999821 -1e-06 -0.018942 0.241470 0.484682
-0.710249 0.046357 -1.051015 0 -0 -1 0.712565 0.559309
-1 0.046357 -1.051015 0 -0 -1 0.672701 0.553491
-0.999999 2.0316 -1.051016 0 -0 -1 0.712565 0.280360
-0.999999 2.0316 -1.051016 0 -0 -1 0.794464 0.574017
-0.757357 2.046357 -1.051016 1e-06 -0 -1 0.828238 0.572727
-0.710249 0.046357 -1.051015 1e-06 -0 -1 0.828508 0.850881
-0.999999 2.0316 -1.051016 1e-06 -0 -1 0.794464 0.574017
-0.730184 0.046357 1.112149 -0 0 1 0.284150 0.771437
-0.719466 2.046357 1.112149 -0 0 1 0.284150 0.493357
-1 2.021842 1.112149 -0 0 1 0.245164 0.496974
-0.719466 2.132374 1.112149 -0 0 1 0.155009 0.777200
-1 2.132374 1.112149 -0 0 1 0.155009 0.738195
-0.719466 2.046357 1.112149 -0 0 1 0.143049 0.777200
-1 2.021842 1.112149 -0 0 1 0.817450 0.275429
-1 0.046357 1.112149 -0 0 1 0.817450 0.000761
-0.730184 0.046357 1.112149 -0 0 1 0.779935 0.000761
0.720603 0.570315 -1 0 0 -1 0.598329 0.280360
-1 0.046357 -1.051015 0 -1 0 0.245164 0.780053
-0.757357 2.046357 -1.051016 0.999723 0.023548 0 0.954661 0.945762
-0.757357 2.046357 -1 0.999723 0.023548 0 0.961754 0.945762
-0.751596 1.801753 -1 0.999723 0.023548 0 0.961754 0.911753
-0.744752 1.511185 -1 0.999723 0.023548 1e-06 0.961754 0.871353
-0.737059 1.184586 -1 0.999723 0.023548 1e-06 0.961754 0.825943
-0.757357 2.046357 -1.051016 0.999723 0.023548 1e-06 0.954661 0.945762
-0.744752 1.511185 -1 0.999723 0.023548 0 0.961754 0.871353
-0.710249 0.046357 -1 0.999723 0.023548 -0 0.627993 0.253525
-0.710249 0.046357 -1.051015 0.999723 0.023548 -0 0.627993 0.246432
-0.721477 0.523058 -1 0.999723 0.023548 -0 0.561714 0.253525
-0.730722 0.91554 -1 0.999723 0.023548 1e-06 0.965117 0.121611
-0.721477 0.523058 -1 0.999723 0.023548 1e-06 0.965117 0.067041
-0.710249 0.046357 -1.051015 0.999723 0.023548 1e-06 0.958024 0.000761
-0.737059 1.184586 -1 0.999723 0.023548 -0 0.961754 0.825943
-0.730722 0.91554 -1 0.999723 0.023548 -0 0.961754 0.788535
0.729187 2.09445 1.098193 0 -0 1 0.348745 0.766456
0.729187 2.046357 1.098193 0 -0 1 0.348745 0.773143
1 2.09445 1.098193 0 -0 1 0.386398 0.766456
1 0.046357 1.098193 0 0 1 0.757044 0.559961
1 1.982852 1.098193 -0 0 1 0.386398 0.781973
-0.720759 1.805034 1 -0 0 1 0.631880 0.887670
-0.999999 2.0316 -1.051016 -1 0 0 0.972947 0.560009
-1 0.046357 -1.051015 -1 0 0 0.972947 0.836034
-1 0.046357 -1 -1 0 0 0.965854 0.836034
-1 0.046357 -0.869881 -1 0 0 0.885338 0.000761
-0.730184 0.046357 1.112149 0 -1 0 0.479159 0.598245
-0.730184 0.046357 1.112149 0.999986 -0.005359 1e-06 0.654428 0.916635
-0.730184 0.046357 1 0.999986 -0.005359 1e-06 0.670021 0.916635
-0.727921 0.468644 1 0.999986 -0.005359 1e-06 0.670021 0.857921
-0.725755 0.872742 1.041689 0.999986 -0.005359 1e-06 0.664225 0.801736
-0.719466 2.046357 1 0.999986 -0.005359 1e-06 0.521997 0.558437
-0.719466 2.046357 1.112149 0.999986 -0.005359 1e-06 0.521997 0.574030
-0.720759 1.805034 1 0.999986 -0.005359 1e-06 0.555550 0.558437
-0.724223 1.158637 1.041689 0.999986 -0.005359 0 0.660225 0.637036
-0.72235 1.508309 1 0.999986 -0.005359 0 0.654428 0.685654
-0.719466 2.046357 1.112149 0.999986 -0.005359 0 0.670021 0.760463
-0.730184 0.046357 1.112149 0.999986 -0.005359 2e-06 0.654428 0.916635
-0.725755 0.872742 1.041689 0.999986 -0.005359 2e-06 0.664225 0.801736
-0.724223 1.158637 1.041689 0.999986 -0.005359 2e-06 0.664225 0.761985
-0.72235 1.508309 1 0.999986 -0.005359 0 0.596807 0.558437
-0.720759 1.805034 1 0.999986 -0.005359 0 0.555550 0.558437
-0.719466 2.046357 1.112149 0.999986 -0.005359 0 0.521997 0.574030
-0.750135 2.067585 -0.618775 -0.000535 0.998336 -0.057659 0.303676 0.506199
0.723082 2.067585 -0.632454 -0.000535 0.998336 -0.057659 0.508515 0.507335
0.721707 2.046357 -1 -0.000535 0.998336 -0.057659 0.508515 0.558439
0.721707 2.09445 -1 -1 -0 -1e-06 0.008989 0.797902
0.720212 0.046357 -1.063707 -1 0.000748 -1e-06 0.132669 0.675380
0.720212 0.046357 -1 -1 0.000748 -1e-06 0.141527 0.675380
0.720603 0.570315 -1 -1 0.000748 -1e-06 0.141527 0.748230
0.720869 0.924995 -1 -1 0.000748 -3e-06 0.241866 0.317692
0.721034 1.145773 -1 -1 0.000748 -3e-06 0.243642 0.287047
0.720212 0.046357 -1.063707 -1 0.000748 -3e-06 0.243642 0.440164
0.720212 0.046357 -1.063707 -1 0.000748 -0 0.132669 0.675380
0.720603 0.570315 -1 -1 0.000748 -0 0.141527 0.748230
0.720869 0.924995 -1 -1 0.000748 -0 0.141527 0.797544
0.721707 2.046357 -1 -1 0.000748 -1e-06 0.011465 0.791691
0.721707 2.046357 -1.063707 -1 0.000748 -1e-06 0.003238 0.788410
0.72152 1.796215 -1 -1 0.000748 -1e-06 0.024347 0.759385
0.721298 1.499341 -1 -1 0.000748 -1e-06 0.039634 0.721044
0.720212 0.046357 -1.063707 -1 0.000748 -1e-06 0.953138 0.838085
0.721034 1.145773 -1 -1 0.000748 -1e-06 0.944281 0.685224
0.721707 2.046357 -1.063707 -1 0.000748 -1e-06 0.953138 0.560009
0.720212 0.046357 -1 0 -1 0 0.641417 0.245128
0.728331 2.021115 0.771187 0.001783 0.995136 -0.098498 0.508515 0.312174
-0.724299 2.021115 0.744891 0.001783 0.995136 -0.098498 0.306559 0.316586
-0.719466 2.046357 1 0.001783 0.995136 -0.098498 0.307098 0.281113
1 2.09445 -0.876465 -0 1 0 0.181743 0.675380
1 2.09445 -1.063707 -0 1 0 0.181743 0.701414
0.721707 2.09445 -1 -0 1 0 0.143049 0.692556
0.721707 2.09445 -1.063707 0 1 0 0.105172 0.793532
0.721707 2.09445 -1 0 1 0 0.096314 0.793532
1 2.09445 -1.063707 0 1 0 0.105172 0.754839
0.729187 2.09445 1 0 1 0 0.639894 0.228711
0.729187 2.09445 1.098193 0 1 0 0.639894 0.242363
1 2.09445 1.098193 0 1 0 0.602241 0.242363
1 2.09445 -0.876465 0 1 -0 0.754313 0.297681
1 2.09445 0.838286 0 1 0 0.602241 0.206226
0.729187 2.046357 1.098193 -0.999949 -0.010143 0 0.952683 0.287047
0.729187 2.046357 1 -0.999949 -0.010143 0 0.966336 0.287047
0.731546 1.813797 1 -0.999949 -0.010143 0 0.966336 0.319382
0.734516 1.520989 1 -0.999949 -0.010143 -0 0.966336 0.360093
0.744887 0.498663 1 -0.999949 -0.010143 -0 0.928094 0.063649
0.737158 1.260588 1.041689 -0.999949 -0.010143 -0 0.960539 0.396299
0.749475 0.046357 1 -0.999949 -0.010143 -0 0.928094 0.000761
0.729187 2.046357 1.098193 -0.999949 -0.010143 -2e-06 0.952683 0.287047
0.737158 1.260588 1.041689 -0.999949 -0.010143 -2e-06 0.960539 0.396299
0.741049 0.877004 1.041689 -0.999949 -0.010143 -2e-06 0.960539 0.449631
0.729187 2.09445 1.098193 -1 0 0 0.952683 0.280360
0.721707 2.09445 -1 -0.999993 0 0.00374 0.008989 0.797902
0.721707 2.046357 -1 -0.999993 0 0.00374 0.011465 0.791691
0.723082 2.067585 -0.632454 -0.999993 0 0.00374 0.057841 0.813360
0.723082 2.067585 -0.632454 -0.999993 0 0.00374 0.964332 0.787013
0.724267 2.043619 -0.315619 -0.999993 0 0.00374 0.960275 0.743022
0.72552 2.022391 0.019619 -0.999993 1e-06 0.00374 0.956557 0.696466
0.726737 2.021115 0.344935 -0.999993 1e-06 0.00374 0.955636 0.651243
0.729187 2.09445 1 -0.999993 1e-06 0.00374 0.964332 0.560009
0.729187 2.046357 1 -0.999993 0 0.00374 0.957646 0.560119
0.729187 2.09445 1 -0.999993 -2e-06 0.00374 0.992974 0.560009
0.721707 2.09445 -1 -0.999993 -2e-06 0.00374 0.992974 0.838085
0.723082 2.067585 -0.632454 -0.999993 -2e-06 0.00374 0.989239 0.786982
0.72552 2.022391 0.019619 -0.999993 -0 0.00374 0.956557 0.696466
1 0.046357 -0.839982 1 -0 0 0.862845 0.830531
1 0.046357 -1 1 -0 0 0.885048 0.831956
1 1.998255 -0.874751 1 -0 0 0.885048 0.560009
1 0.046357 -1.063707 1 -0 2e-06 0.511793 0.840813
1 1.99973 -1.063707 1 -0 2e-06 0.240199 0.840813
1 0.046357 -1 1 -0 2e-06 0.511793 0.849670
0.724267 2.043619 -0.315619 0.000245 0.997903 0.064722 0.508515 0.463283
-0.744286 2.043619 -0.310071 0.000245 0.997903 0.064722 0.304329 0.463275
-0.738086 2.022391 0.017201 0.000245 0.997903 0.064722 0.305021 0.417769
-0.719466 2.132374 1.112149 -0 1 -0 0.096314 0.717099
-0.719466 2.132374 1 -0 1 -0 0.110793 0.711310
-1 2.132374 1.112149 -0 1 -0 0.110793 0.753317
-0.757357 2.132374 -1 0 1 0 0.159466 0.702936
-0.757357 2.132374 -1.051016 0 1 0 0.166560 0.702936
-0.999999 2.132374 -1.051016 0 1 0 0.166560 0.736673
-0.999999 2.132374 -0.881923 0 1 0 0.830031 0.796516
-1 2.132374 0.833926 0 1 0 0.861322 0.560009
-0.757357 2.132374 -1 0 1 0 0.861322 0.817217
-0.999999 2.132374 -0.881923 -0 1 0 0.143049 0.736673
-1 2.132374 1.112149 0 1 -0 0.600719 0.244910
-0.719466 2.132374 1 0 1 -0 0.561714 0.229317
-1 2.132374 0.833926 0 1 -0 0.600719 0.206226
-0.757357 2.132374 -1.051016 1 -1e-06 0 0.954661 0.957722
-0.719466 2.132374 1 1 -1e-06 1e-06 0.510038 0.558437
-0.73189 2.021115 0.344235 -0 1 0 0.305712 0.372296
0.72552 2.022391 0.019619 -6e-06 0.999992 0.003902 0.508515 0.416671
-0.738086 2.022391 0.017201 -6e-06 0.999992 0.003902 0.305021 0.417769
-0.73189 2.021115 0.344235 -6e-06 0.999992 0.003902 0.305712 0.372296
0.721707 2.09445 -1.063707 0 0 -1 0.752791 0.565123
1 2.09445 -1.063707 0 0 -1 0.714097 0.565152
1 1.99973 -1.063707 0 0 -1 0.778413 0.275127
1 0.046357 -1.063707 0 0 -1 0.739905 0.006277
0.720212 0.046357 -1.063707 0 0 -1 0.778413 0.000761
0.723082 2.067585 -0.632454 0.000719 0.997001 0.077389 0.508515 0.507335
-0.750135 2.067585 -0.618775 0.000719 0.997001 0.077389 0.303676 0.506199
-0.744286 2.043619 -0.310071 0.000719 0.997001 0.077389 0.304329 0.463275
-0.757357 2.046357 -1 0 0 -1 0.000761 0.815036
0.721298 1.499341 -1.039374 1 -0.000748 0 0.034549 0.719016
-0.744752 1.511185 -1 0 -0 -1 0.397903 0.560730
-0.737059 1.184586 -1 0 0 -1 0.834547 0.483051
-0.721477 0.523058 -1.034113 0.032753 -0.999464 0 0.987099 0.998969
0.731546 1.813797 1.042039 0.999949 0.010143 0 0.960491 0.319382
-0.72235 1.508309 1 -0.008262 0.118424 0.992929 0.562888 0.203974
-0.724223 1.158637 1.041689 -0.008262 0.118424 0.992929 0.611505 0.204375
0.737158 1.260588 1.041689 -0.008262 0.118424 0.992929 0.597920 0.001147
-0.724223 1.158637 1.041689 -0 0 1 0.611505 0.204375
-0.725755 0.872742 1.041689 -0 0 1 0.651255 0.204704
0.741049 0.877004 1.041689 -0 0 1 0.651255 0.000761
0.741049 0.877004 1.063198 0.999949 0.010143 0 0.936881 0.116253
-0.730184 0.046357 1 -0 0 1 0.000761 0.671771
-0.999999 2.0316 -1.051016 -1 -0 -0 0.680222 0.278838
-0.999999 2.030835 -0.881337 -1 -0 -0 0.680115 0.255246
-0.999999 2.132374 -0.881923 -1 -0 -0 0.694233 0.255327
-0.999999 2.030835 -0.881337 -0 0.005773 0.999983 0.906242 0.276680
-1 0.046357 -0.869881 -0 0.005773 0.999983 0.906242 0.000761
-0.902558 1.449311 -0.87798 -0 0.005773 0.999983 0.892694 0.195825
-0.860599 0.046357 -0.869881 -0 0.005773 0.999983 0.588487 0.938969
-0.860599 0.315906 -0.871437 -0 0.005773 0.999983 0.588487 0.901491
-0.902557 1.766077 -0.879808 -0 0.005773 0.999983 0.892694 0.239868
-0.860598 2.030835 -0.881337 -0 0.005773 0.999983 0.886860 0.276680
-0.902558 1.449311 -0.87798 -1e-06 0.005773 0.999983 0.892694 0.195825
-0.902557 1.766077 -0.879808 -1e-06 0.005773 0.999983 0.892694 0.239868
-0.999999 2.030835 -0.881337 -1e-06 0.005773 0.999983 0.906242 0.276680
-1 0.046357 -0.869881 -1e-06 0.005773 0.999983 0.569105 0.938969
-0.860599 0.315906 -0.871437 -1e-06 0.005773 0.999983 0.588487 0.901491
-0.860599 0.480795 -0.872389 -1e-06 0.005773 0.999983 0.588487 0.878565
-0.860599 0.480795 -0.872389 -0 0.005773 0.999983 0.198458 0.675380
-0.811437 0.751004 -0.873949 -0 0.005773 0.999983 0.191622 0.712950
-0.860598 1.175178 -0.876397 -0 0.005773 0.999983 0.198458 0.771926
-0.860598 1.175178 -0.876397 -0 0.005773 0.999983 0.886860 0.157711
-0.811437 0.751004 -0.873949 -1e-06 0.005773 0.999983 0.191622 0.712950
-0.811437 0.955662 -0.87513 -1e-06 0.005773 0.999983 0.191622 0.741405
-0.860598 1.175178 -0.876397 -1e-06 0.005773 0.999983 0.198458 0.771926
-1 2.023094 0.834589 -1 -0 -1e-06 0.446663 0.851367
-1 2.021842 1.112149 -1 -0 -0 0.699940 0.004153
-1 2.023094 0.834589 -1 -0 -0 0.738383 0.000761
-1 0.046357 1 -1 -0 -0 0.738383 0.276564
-1 0.046357 1 -1 -0 -0 0.285672 0.493357
-1 0.046357 1.112149 -1 -0 -0 0.301265 0.493357
-1 2.021842 1.112149 -1 -0 -0 0.301265 0.768025
-1 2.021842 1.112149 -1 -0 -0 0.485254 0.851192
1 0.046357 -0.839982 -1e-06 0.01781 0.999841 0.951161 0.551749
1 1.998255 -0.874751 -1e-06 0.01781 0.999841 0.951161 0.280360
0.903987 0.886984 -0.854956 -1e-06 0.01781 0.999841 0.937811 0.434869
0.864732 1.784721 -0.870948 -0 0.01781 0.999841 0.079693 0.707117
0.864732 1.519142 -0.866217 -0 0.01781 0.999841 0.084135 0.743774
1 1.998255 -0.874751 -0 0.01781 0.999841 0.094792 0.675380
1 1.998255 -0.874751 -0 0.01781 0.999841 0.112316 0.741000
0.864732 1.998255 -0.874751 -0 0.01781 0.999841 0.131123 0.741000
0.864732 1.784721 -0.870948 -0 0.01781 0.999841 0.131123 0.711310
0.864732 0.37462 -0.845829 -0 0.01781 0.999841 0.632952 0.278838
0.864732 0.046357 -0.839982 -0 0.01781 0.999841 0.678593 0.278838
1 0.046357 -0.839982 -0 0.01781 0.999841 0.678593 0.260030
0.903987 0.556257 -0.849065 -0 0.017811 0.999841 0.607697 0.273380
0.864732 0.37462 -0.845829 -0 0.017811 0.999841 0.632952 0.278838
1 0.046357 -0.839982 -0 0.017811 0.999841 0.678593 0.260030
0.864732 1.519142 -0.866217 -1e-06 0.01781 0.999841 0.084135 0.743774
0.864732 1.200197 -0.860535 -1e-06 0.01781 0.999841 0.089470 0.787797
1 1.998255 -0.874751 -1e-06 0.01781 0.999841 0.094792 0.675380
0.903987 0.886984 -0.854956 -1e-06 0.01781 0.999841 0.561714 0.273380
0.903987 0.556257 -0.849065 -1e-06 0.01781 0.999841 0.607697 0.273380
1 0.046357 -0.839982 -1e-06 0.01781 0.999841 0.678593 0.260030
1 0.046357 1 1 -0 0 0.907254 0.560009
1 0.046357 0.850722 1 -0 0 0.886570 0.561727
1 1.984876 0.838952 1 -0 0 0.907254 0.830466
1 0.046357 1 1 -0 0 0.287695 0.000761
0.896616 0.046357 -0.839982 -0 -1 -0 0.537943 0.015135
0.864732 1.984876 0.838952 0 -0.99997 -0.007807 0.927584 0.798279
0.864732 1.984876 0.838952 0 -0.006072 -0.999982 0.078171 0.780683
1 1.984876 0.838952 0 -0.006072 -0.999982 0.059363 0.780683
0.864732 1.764238 0.840291 0 -0.006072 -0.999982 0.078171 0.750006
1 0.046357 0.850722 0 -0.006072 -0.999982 0.926572 0.270290
0.864731 0.046357 0.850722 0 -0.006072 -0.999982 0.907765 0.270290
0.864731 0.252007 0.849474 0 -0.006072 -0.999982 0.907765 0.241696
0.864731 0.252007 0.849474 1e-06 -0.006072 -0.999982 0.907765 0.241696
0.903987 0.62085 0.847234 1e-06 -0.006072 -0.999982 0.913223 0.190413
0.864732 1.52236 0.84176 0 -0.006072 -0.999982 0.078171 0.716375
0.864732 1.227511 0.84355 0 -0.006072 -0.999982 0.078171 0.675380
0.903987 0.62085 0.847234 0 -0.006072 -0.999982 0.913223 0.190413
0.903987 0.921996 0.845405 0 -0.006072 -0.999982 0.913223 0.148542
0.864732 1.227511 0.84355 0 -0.006072 -0.999982 0.907765 0.106064
1 1.984876 0.838952 0 -0.006072 -0.999982 0.926572 0.000761
0.910502 1.998255 -0.874751 -0 -0.01781 -0.999841 0.206344 0.726216
-0.751596 1.801753 -1.039375 0 -0 -1 0.589478 0.575552
-0.860599 0.046357 0.84658 0 -0.006066 -0.999982 0.567583 0.952061
-1 0.046357 0.84658 0 -0.006066 -0.999982 0.548201 0.952061
-0.860599 0.26594 0.845248 0 -0.006066 -0.999982 0.567583 0.921531
-1 2.023094 0.834589 0 -0.006066 -0.999982 0.896261 0.281723
-0.860599 2.023094 0.834589 0 -0.006066 -0.999982 0.915595 0.280360
-0.902558 1.784576 0.836036 0 -0.006066 -0.999982 0.912109 0.313851
-0.902558 1.566633 0.837358 0 -0.006066 -0.999982 0.914240 0.344079
-0.860599 0.26594 0.845248 1e-06 -0.006066 -0.999982 0.567583 0.921531
-1 0.046357 0.84658 1e-06 -0.006066 -0.999982 0.548201 0.952061
-0.860599 0.562262 0.84345 1e-06 -0.006066 -0.999982 0.567583 0.880331
-0.811437 1.005743 0.84076 1e-06 -0.006066 -0.999982 0.183265 0.737041
-0.811437 0.767221 0.842207 1e-06 -0.006066 -0.999982 0.183265 0.703877
-0.860599 0.562262 0.84345 1e-06 -0.006066 -0.999982 0.190100 0.675380
-0.860599 0.562262 0.84345 0 -0.006066 -0.999982 0.567583 0.880331
-0.860599 1.269341 0.839161 0 -0.006066 -0.999982 0.567583 0.782019
-1 2.023094 0.834589 1e-06 -0.006066 -0.999982 0.896261 0.281723
-0.902558 1.566633 0.837358 1e-06 -0.006066 -0.999982 0.914240 0.344079
-1 0.046357 0.84658 1e-06 -0.006066 -0.999982 0.915595 0.555885
-0.860599 1.269341 0.839161 -1e-06 -0.006066 -0.999982 0.190100 0.773691
-0.811437 1.005743 0.84076 -1e-06 -0.006066 -0.999982 0.183265 0.737041
-0.860599 0.562262 0.84345 -1e-06 -0.006066 -0.999982 0.190100 0.675380
-0.860598 2.030835 -0.881337 0 -0.99999 -0.004511 0.633524 0.685740
-1 0.046357 1 -0 -1 0 0.158541 0.777605
-1 0.046357 0.84658 -0 -1 0 0.179872 0.777605
-0.860599 0.046357 0.84658 -0 -1 0 0.179872 0.758223
-1 0.046357 -0.869881 0 -1 0 0.542100 0.278838
-1 0.046357 -1 0 -1 0 0.560192 0.278838
-0.860599 0.046357 0.84658 0 -1 0 0.442234 0.580112
0.864731 0.046357 0.850722 -0 -1 0 0.442810 0.819999
0.864731 0.046357 0.850722 0 -1 0 0.115122 0.675380
0.864731 0.046357 0.850722 0 -1 -0 0.112316 0.787048
1 0.046357 0.850722 0 -1 -0 0.131123 0.787048
1 0.046357 1 0 -1 -0 0.131123 0.766293
1 0.046357 -1 0 -1 0 0.131123 0.764771
1 0.046357 -0.839982 0 -1 0 0.131123 0.742522
0.864732 0.046357 -0.839982 0 -1 0 0.112316 0.742522
0.864731 0.046357 0.850722 0 -1 0 0.936289 0.280360
0.749475 0.046357 1 0 -1 0 0.917118 0.298250
-0.730184 0.046357 1 0 -1 0 0.936289 0.503084
0.720212 0.046357 -1 -0 -1 -0 0.560192 0.039662
1 0.046357 -1 -0 -1 -0 0.560192 0.000761
0.864732 1.784721 -0.870948 1 -0 0 0.714088 0.566674
0.903287 1.200197 -0.860535 0 -0.999871 0.016027 0.987716 0.796942
0.903987 0.921996 0.845405 0.99224 0.124312 -0.002559 0.237713 0.380203
0.903987 0.886984 -0.854956 0.99224 0.124312 -0.002559 0.001272 0.376770
0.864732 1.200197 -0.860535 0.99224 0.124312 -0.002559 0.000761 0.420323
0.903987 0.556257 -0.849065 1 -0 0 0.001812 0.330782
0.864732 0.37462 -0.845829 0.977432 -0.211099 0.008039 0.002109 0.305526
0.903987 0.556257 -0.849065 0.977432 -0.211099 0.008039 0.001812 0.330782
0.903987 0.62085 0.847234 0.977432 -0.211099 0.008039 0.237713 0.338331
-0.902558 1.449311 -0.87798 -1 0 -0 0.239349 0.609445
-0.903367 1.263062 0.839548 0.145513 -0.987869 0.054222 0.976237 0.280360
-0.860598 1.175178 -0.876397 -0.975816 -0.218501 0.006377 0.516165 0.576266
-0.811437 0.955662 -0.87513 -0.975816 -0.218501 0.006377 0.546679 0.575552
-0.811437 1.005743 0.84076 -0.975816 -0.218501 0.006377 0.546679 0.814228
-0.811437 0.751004 -0.873949 -1 0 -0 0.000779 0.493095
-0.811437 0.751004 -0.873949 -0.983822 0.178948 -0.008496 0.000779 0.493095
-0.860599 0.480795 -0.872389 -0.983822 0.178948 -0.008496 0.000768 0.455525
-0.860599 0.562262 0.84345 -0.983822 0.178948 -0.008496 0.239399 0.465405
-0.860599 0.315906 -0.871437 -1 0 -0 0.000761 0.432599
-0.909914 0.046357 -0.869881 0 -0.005773 -0.999983 0.387921 0.803934
-0.751596 1.801753 -1.039375 -0.999723 -0.023548 0 0.956279 0.911753
0.72152 1.796215 -1.039374 0.003759 0.999993 -0 0.996547 0.280360
-0.744752 1.511185 -1.039375 -0.008079 -0.999967 0 0.997259 0.204598
-0.721477 0.523058 -1.034113 0 -0 -1 0.598329 0.483317
0.720603 0.570315 -1.034112 1 -0.000748 0 0.204723 0.724694
-0.730722 0.91554 -1.034113 -0.999723 -0.023548 0 0.960374 0.121611
0.720869 0.924995 -1.034112 -0.006513 0.999979 0 0.999239 0.797243
-0.945326 1.443032 -0.877593 -0.988461 -0.151248 0.008301 0.402642 0.562599
-0.903367 1.1689 -0.87601 -0.988461 -0.151248 0.008301 0.440712 0.560730
-0.903367 1.263062 0.839548 -0.988461 -0.151248 0.008301 0.440712 0.799617
-0.902558 1.566633 0.837358 0.007993 0.007194 0.999942 0.950591 0.212489
-0.860598 1.175178 -0.876397 -0.008021 -0.007 -0.999943 0.886860 0.157711
-0.945326 1.443032 -0.877593 -0.145513 0.98705 -0.06751 0.976949 0.239259
-0.909914 0.315906 -0.871437 -1 0 -0 0.672701 0.560832
-0.909914 0.26594 0.845248 -0 0.006066 0.999982 0.560726 0.921531
-0.909914 0.046357 0.84658 0 -1 0 0.303446 0.266312
-0.909914 0.315906 -0.871437 -0 0.999577 0.029094 0.967858 0.519045
-0.72235 1.508309 1.042039 -0 0 1 0.860225 0.203329
-0.720759 1.805034 1.042039 -0.006034 0.999982 0 0.984417 0.202687
0.734516 1.520989 1.042039 0.008703 -0.999962 0 0.983706 0.280360
-0.72235 1.508309 1.042039 -0.999986 0.005359 0 0.596807 0.564282
-0.727921 0.468644 1.063198 -0 0 1 0.245164 0.287047
-0.725755 0.872742 1.041689 -0.002906 0.999996 0 0.243190 0.814909
0.744887 0.498663 1.063198 0.020378 -0.999792 0 0.966640 0.000761
-0.727921 0.468644 1 -0.999986 0.005359 0 0.670021 0.857921
0.903287 1.519142 -0.866217 1 -0 0 0.302870 0.560730
0.864732 1.519142 -0.866217 -0 -0.01781 -0.999841 0.084135 0.743774
0.903287 1.227511 0.84355 0 0.006072 0.999982 0.072810 0.675380
0.903287 1.52236 0.84176 0 0.999998 -0.001884 0.596361 0.575552
0.910502 1.998255 -0.874751 1 -0 0 0.238677 0.849670
0.910502 1.984876 0.838952 0 0.999969 0.007807 0.921220 0.798279
0.910502 1.784721 -0.870948 -0 -0.999928 -0.011969 0.980833 0.797936
0.864732 1.764238 0.840291 0 0.006072 0.999982 0.078171 0.750006
0.896616 0.37462 -0.845829 1 -0 0 0.652777 0.000761
0.896616 0.252007 0.849474 0 0.997395 0.072137 0.998929 0.560009
0.896616 0.046357 0.850722 0 0.006072 0.999982 0.912198 0.270290
0.896616 0.37462 -0.845829 -0 -0.01781 -0.999841 0.632952 0.274405
3 0 1 2 
3 3 4 5 
3 6 7 8 
3 9 10 11 
3 12 13 14 
3 15 16 17 
3 18 19 20 
3 21 22 23 
3 24 25 26 
3 27 28 29 
3 30 31 32 
3 33 34 35 
3 36 37 38 
3 39 40 41 
3 42 43 44 
3 45 46 47 
3 48 49 50 
3 51 52 53 
3 54 55 56 
3 57 58 59 
3 60 61 62 
3 63 64 65 
3 66 67 68 
3 69 70 71 
3 72 73 74 
3 75 76 77 
3 78 79 80 
3 81 82 83 
3 84 85 86 
3 87 88 89 
3 90 91 92 
3 93 94 95 
3 96 97 98 
3 99 100 101 
3 102 103 104 
3 105 106 107 
3 108 109 110 
3 111 112 113 
3 114 115 116 
3 117 118 119 
3 120 121 122 
3 123 124 125 
3 126 127 128 
3 129 130 131 
3 132 133 134 
3 135 136 137 
3 138 139 140 
3 141 142 143 
3 144 145 146 
3 147 148 141 
3 149 150 151 
3 152 153 154 
3 155 156 157 
3 158 159 160 
3 161 162 163 
3 164 165 166 
3 167 168 169 
3 170 171 172 
3 173 152 174 
3 175 176 177 
3 178 179 180 
3 181 182 183 
3 184 185 186 
3 187 188 189 
3 190 191 192 
3 193 194 195 
3 196 197 198 
3 199 200 201 
3 202 203 204 
3 205 206 207 
3 208 209 210 
3 211 212 213 
3 214 215 216 
3 217 218 219 
3 220 221 222 
3 223 224 225 
3 226 227 228 
3 229 230 231 
3 232 233 234 
3 235 236 237 
3 238 239 240 
3 241 242 243 
3 244 245 246 
3 247 248 249 
3 250 251 174 
3 252 253 254 
3 255 256 257 
3 258 259 260 
3 261 262 263 
3 264 265 266 
3 267 268 269 
3 270 271 272 
3 273 274 275 
3 276 277 278 
3 279 280 281 
3 282 283 284 
3 285 286 287 
3 288 289 290 
3 291 292 293 
3 294 295 296 
3 297 298 299 
3 300 301 302 
3 303 304 305 
3 306 307 308 
3 309 310 311 
3 312 313 314 
3 315 316 317 
3 3 318 4 
3 8 319 320 
3 321 322 323 
3 324 325 323 
3 326 327 328 
3 329 330 331 
3 322 324 323 
3 332 333 334 
3 335 9 11 
3 336 337 338 
3 339 340 341 
3 342 343 344 
3 345 346 347 
3 15 348 16 
3 18 349 19 
3 350 351 352 
3 353 354 355 
3 350 352 356 
3 357 358 359 
3 360 361 362 
3 350 363 364 
3 365 366 367 
3 24 368 25 
3 369 367 366 
3 27 370 28 
3 371 372 373 
3 30 374 31 
3 33 375 34 
3 376 377 378 
3 376 378 379 
3 380 381 382 
3 383 384 385 
3 386 387 388 
3 389 390 391 
3 392 393 394 
3 42 395 43 
3 396 397 398 
3 399 400 401 
3 402 403 404 
3 405 406 407 
3 408 407 406 
3 409 410 411 
3 48 412 49 
3 413 414 415 
3 416 417 418 
3 419 420 421 
3 422 423 424 
3 56 425 54 
3 422 424 426 
3 427 428 429 
3 429 430 427 
3 57 431 58 
3 427 430 432 
3 431 433 58 
3 434 435 436 
3 60 437 61 
3 438 439 440 
3 441 442 65 
3 443 444 445 
3 64 446 65 
3 447 448 449 
3 442 450 65 
3 451 452 453 
3 454 455 456 
3 457 458 459 
3 460 461 462 
3 463 464 465 
3 466 467 468 
3 463 465 469 
3 470 471 472 
3 75 473 76 
3 78 474 79 
3 81 475 82 
3 476 477 478 
3 87 479 480 
3 481 482 483 
3 87 480 88 
3 484 485 486 
3 93 487 94 
3 96 488 97 
3 99 489 100 
3 102 490 103 
3 105 491 106 
3 108 492 109 
3 493 494 495 
3 496 497 498 
3 117 499 118 
3 120 500 121 
3 501 502 503 
3 504 505 506 
3 126 507 508 
3 509 510 504 
3 511 512 513 
3 514 515 516 
3 517 518 519 
3 520 506 505 
3 521 522 523 
3 129 524 130 
3 525 526 527 
3 528 529 530 
3 135 531 136 
3 138 147 139 
3 141 148 142 
3 532 533 534 
3 535 536 537 
3 538 539 540 
3 541 542 543 
3 544 545 546 
3 547 548 549 
3 550 551 552 
3 147 138 148 
3 553 554 555 
3 138 140 556 
3 152 557 153 
3 155 558 156 
3 559 560 561 
3 562 563 564 
3 158 565 566 
3 561 560 567 
3 568 567 560 
3 562 569 570 
3 570 571 572 
3 161 573 162 
3 164 574 165 
3 575 576 577 
3 578 579 580 
3 578 580 581 
3 582 583 584 
3 585 586 587 
3 588 576 589 
3 590 591 592 
3 593 594 595 
3 170 596 171 
3 597 598 599 
3 174 600 601 
3 33 35 602 
3 174 601 173 
3 33 602 603 
3 3 5 604 
3 605 606 607 
3 608 609 610 
3 611 612 613 
3 614 615 152 
3 152 154 250 
3 250 174 152 
3 173 614 152 
3 175 616 176 
3 178 617 179 
3 618 619 620 
3 184 621 185 
3 622 623 624 
3 190 625 191 
3 193 626 194 
3 627 628 629 
3 199 630 200 
3 631 632 633 
3 205 634 206 
3 208 635 209 
3 211 636 212 
3 214 637 215 
3 217 638 218 
3 220 639 221 
3 223 640 224 
3 226 641 227 
3 229 642 230 
3 643 644 645 
3 235 646 236 
3 238 647 239 
3 241 648 242 
3 244 649 245 
3 247 650 248 
3 250 651 251 
3 252 652 253 
3 255 653 256 
3 258 654 259 
3 261 655 262 
3 264 656 265 
3 267 657 268 
3 270 658 271 
3 273 659 274 
3 276 660 277 
3 279 661 280 
3 282 662 283 
3 285 663 286 
3 288 664 289 
3 291 665 292 
3 294 666 295 
3 297 667 298 
3 300 668 301 
3 303 669 304 
3 306 670 307 
3 309 671 310 
3 312 672 313 
